<?xml version="1.0" encoding="UTF-8" standalone="no"?>
<svg
   id="svg8"
   version="1.1"
   viewBox="0 0 288 216"
   height="2.25in"
   width="3in"
   inkscape:version="1.3.2 (091e20ef0f, 2023-11-25, custom)"
   sodipodi:docname="endofunctor-monoid.svg"
   xmlns:inkscape="http://www.inkscape.org/namespaces/inkscape"
   xmlns:sodipodi="http://sodipodi.sourceforge.net/DTD/sodipodi-0.dtd"
   xmlns="http://www.w3.org/2000/svg"
   xmlns:svg="http://www.w3.org/2000/svg"
   xmlns:rdf="http://www.w3.org/1999/02/22-rdf-syntax-ns#"
   xmlns:cc="http://creativecommons.org/ns#"
   xmlns:dc="http://purl.org/dc/elements/1.1/"
   xmlns:ns134="http://www.iki.fi/pav/software/textext/">
  <sodipodi:namedview
     pagecolor="#ffffff"
     bordercolor="#000000"
     borderopacity="1"
     objecttolerance="5"
     gridtolerance="10"
     guidetolerance="5"
     inkscape:pageopacity="1"
     inkscape:pageshadow="2"
     inkscape:window-width="2216"
     inkscape:window-height="1417"
     id="namedview10"
     showgrid="true"
     inkscape:zoom="3.0552459"
     inkscape:cx="127.97661"
     inkscape:cy="163.65295"
     inkscape:window-x="15"
     inkscape:window-y="39"
     inkscape:window-maximized="0"
     inkscape:current-layer="svg8"
     showguides="false"
     inkscape:pagecheckerboard="true"
     borderlayer="true"
     scale-x="1"
     fit-margin-top="0"
     fit-margin-left="0"
     fit-margin-right="0"
     fit-margin-bottom="0"
     units="px"
     width="1000px"
     inkscape:showpageshadow="0"
     inkscape:deskcolor="#595959"
     inkscape:document-units="in">
    <inkscape:grid
       type="xygrid"
       id="rectangular"
       units="in"
       spacingx="5.9999999"
       spacingy="5.9999999"
       dotted="true"
       empspacing="16"
       snapvisiblegridlinesonly="true"
       visible="true"
       enabled="true"
       color="#202020"
       opacity="1"
       empcolor="#000000"
       empopacity="1"
       originx="0"
       originy="0" />
    <inkscape:grid
       type="axonomgrid"
       id="isometric"
       color="#202020"
       opacity="0.10196078"
       empcolor="#000000"
       empopacity="0.25098039"
       spacingy="10"
       units="px"
       empspacing="10"
       gridanglez="30"
       originx="500"
       enabled="false"
       originy="0"
       gridanglex="30"
       visible="true" />
  </sodipodi:namedview>
  <defs
     id="defs2">
    <marker
       inkscape:stockid="TeXArrow_1.0Start"
       style="overflow:visible"
       refY="0"
       refX="0"
       orient="auto"
       id="TeXArrow_1.0Start">
      <path
         id="path826"
         transform="matrix(0.4,0,0,0.4,3.5272,0)"
         style="fill:#000000;fill-rule:evenodd;stroke:#000000;stroke-width:1"
         d="M 0,0 5,-5 -12.5,0 5,5 Z"
         inkscape:connector-curvature="0" />
    </marker>
    <marker
       inkscape:stockid="TeXArrow_1.0End"
       style="overflow:visible"
       refY="0"
       refX="0"
       orient="auto"
       id="TeXArrow_1.0End">
      <path
         id="path829"
         transform="matrix(-0.4,0,0,-0.4,-3.5272,0)"
         style="fill:#000000;fill-rule:evenodd;stroke:#000000;stroke-width:1"
         d="M 0,0 5,-5 -12.5,0 5,5 Z"
         inkscape:connector-curvature="0" />
    </marker>
    <marker
       inkscape:stockid="MyDot_1.0"
       style="overflow:visible"
       refY="0"
       refX="0"
       orient="auto"
       id="MyDot_1.0">
      <path
         id="path874"
         transform="matrix(0.4,0,0,0.4,2.96,0.4)"
         style="fill:#000000;fill-rule:evenodd;stroke:#000000;stroke-width:1"
         d="m -2.5,-1 c 0,2.76 -2.24,5 -5,5 -2.76,0 -5,-2.24 -5,-5 0,-2.76 2.24,-5 5,-5 2.76,0 5,2.24 5,5 z" />
    </marker>
    <marker
       inkscape:stockid="MyEllipsis_1.0Start"
       style="overflow:visible"
       refY="0"
       refX="0"
       orient="auto"
       id="MyEllipsis_1.0Start">
      <path
         id="path877"
         transform="translate(-6)"
         style="fill:#000000;fill-rule:evenodd;stroke:none;stroke-width:1"
         d="m 0.5,0 a 0.5,0.5 0 1 1 -1,0 0.5,0.5 0 1 1 1,0 z m 2,0 a 0.5,0.5 0 1 1 -1,0 0.5,0.5 0 1 1 1,0 z m 2,0 a 0.5,0.5 0 1 1 -1,0 0.5,0.5 0 1 1 1,0 z" />
    </marker>
    <marker
       inkscape:stockid="MyEllipsis_1.0End"
       style="overflow:visible"
       refY="0"
       refX="0"
       orient="auto"
       id="MyEllipsis_1.0End">
      <path
         id="path880"
         transform="translate(2)"
         style="fill:#000000;fill-rule:evenodd;stroke:none;stroke-width:1"
         d="m 0.5,0 a 0.5,0.5 0 1 1 -1,0 0.5,0.5 0 1 1 1,0 z m 2,0 a 0.5,0.5 0 1 1 -1,0 0.5,0.5 0 1 1 1,0 z m 2,0 a 0.5,0.5 0 1 1 -1,0 0.5,0.5 0 1 1 1,0 z" />
    </marker>
    <marker
       inkscape:stockid="MyArrow_1.0Start"
       style="overflow:visible"
       refY="0"
       refX="0"
       orient="auto"
       id="MyArrow_1.0Start">
      <path
         id="path883"
         transform="matrix(0.4,0,0,0.4,3.5272,0)"
         style="fill:#000000;fill-rule:evenodd;stroke:#000000;stroke-width:1"
         d="M 0,0 5,-5 -12.5,0 5,5 Z" />
    </marker>
    <marker
       inkscape:stockid="MyArrow_1.0End"
       style="overflow:visible"
       refY="0"
       refX="0"
       orient="auto"
       id="MyArrow_1.0End">
      <path
         id="path886"
         transform="matrix(-0.4,0,0,-0.4,-3.5272,0)"
         style="fill:#000000;fill-rule:evenodd;stroke:#000000;stroke-width:1"
         d="M 0,0 5,-5 -12.5,0 5,5 Z" />
    </marker>
    <marker
       inkscape:stockid="TeXArrow_1.0"
       style="overflow:visible"
       refY="0"
       refX="0"
       orient="auto"
       id="TeXArrow_1.0"
       viewBox="0 0 5.8841106 8.6401844"
       markerWidth="5.8841105"
       markerHeight="8.6401844"
       preserveAspectRatio="xMidYMid">
      <path
         id="path889"
         style="fill:#000000;fill-rule:evenodd;stroke:#000000;stroke-width:1"
         d="m -5,4 c 1,-1.2 3,-3 4.99,-3.99 a 0.01,0.01 0 1 0 0,-0.02 C -2,-1 -4,-2.8 -5,-4 c 1,1.2 3,3 4.99,3.99 a 0.01,0.01 0 1 0 0,0.02 C -2,1 -4,2.8 -5,4" />
    </marker>
    <marker
       inkscape:stockid="TeXArrow_1.0Start"
       style="overflow:visible"
       refY="0"
       refX="0"
       orient="auto"
       id="TeXArrow_1.0Start-2">
      <path
         id="path826-5"
         transform="matrix(0.4,0,0,0.4,3.5272,0)"
         style="fill:#000000;fill-rule:evenodd;stroke:#000000;stroke-width:1"
         d="M 0,0 5,-5 -12.5,0 5,5 Z"
         inkscape:connector-curvature="0" />
    </marker>
    <marker
       inkscape:stockid="TeXArrow_1.0End"
       style="overflow:visible"
       refY="0"
       refX="0"
       orient="auto"
       id="TeXArrow_1.0End-8">
      <path
         id="path829-6"
         transform="matrix(-0.4,0,0,-0.4,-3.5272,0)"
         style="fill:#000000;fill-rule:evenodd;stroke:#000000;stroke-width:1"
         d="M 0,0 5,-5 -12.5,0 5,5 Z"
         inkscape:connector-curvature="0" />
    </marker>
    <marker
       inkscape:stockid="TeXArrow_1.0"
       style="overflow:visible"
       refY="0"
       refX="0"
       orient="auto"
       id="TeXArrow_1.0-2">
      <path
         id="path832"
         style="fill:#000000;fill-rule:evenodd;stroke:#000000;stroke-width:1"
         d="m -4,3 c 1,-1 2,-2 4,-3 -2,-1 -3,-2 -4,-3 1,1 2,2 4,3 -2,1 -3,2 -4,3"
         inkscape:connector-curvature="0" />
    </marker>
    <marker
       inkscape:stockid="TeXArrow_1.0Start"
       style="overflow:visible"
       refY="0"
       refX="0"
       orient="auto"
       id="TeXArrow_1.0Start-0">
      <path
         id="path826-6"
         transform="matrix(0.4,0,0,0.4,3.5272,0)"
         style="fill:#000000;fill-rule:evenodd;stroke:#000000;stroke-width:1"
         d="M 0,0 5,-5 -12.5,0 5,5 Z"
         inkscape:connector-curvature="0" />
    </marker>
    <marker
       inkscape:stockid="TeXArrow_1.0End"
       style="overflow:visible"
       refY="0"
       refX="0"
       orient="auto"
       id="TeXArrow_1.0End-2">
      <path
         id="path829-9"
         transform="matrix(-0.4,0,0,-0.4,-3.5272,0)"
         style="fill:#000000;fill-rule:evenodd;stroke:#000000;stroke-width:1"
         d="M 0,0 5,-5 -12.5,0 5,5 Z"
         inkscape:connector-curvature="0" />
    </marker>
    <marker
       inkscape:stockid="TeXArrow_1.0"
       style="overflow:visible"
       refY="0"
       refX="0"
       orient="auto"
       id="TeXArrow_1.0-9">
      <path
         id="path832-0"
         style="fill:#000000;fill-rule:evenodd;stroke:#000000;stroke-width:1"
         d="m -4,3 c 1,-1 2,-2 4,-3 -2,-1 -3,-2 -4,-3 1,1 2,2 4,3 -2,1 -3,2 -4,3"
         inkscape:connector-curvature="0" />
    </marker>
    <defs
       id="id-7b223619-b0ed-4df4-bd20-f1fb11421759">
      <g
         id="id-44412138-0551-4592-bf6b-a056b010722d">
        <g
           id="id-02901e02-04cd-4039-8f96-902f142fc420">
          <path
             d="M 1.78125,-1.140625 C 1.390625,-0.484375 1,-0.34375 0.5625,-0.3125 0.4375,-0.296875 0.34375,-0.296875 0.34375,-0.109375 0.34375,-0.046875 0.40625,0 0.484375,0 0.75,0 1.0625,-0.03125 1.328125,-0.03125 c 0.34375,0 0.6875,0.03125 1,0.03125 0.0625,0 0.1875,0 0.1875,-0.1875 0,-0.109375 -0.078125,-0.125 -0.15625,-0.125 -0.21875,-0.015625 -0.46875,-0.09375 -0.46875,-0.34375 0,-0.125 0.0625,-0.234375 0.140625,-0.375 l 0.765625,-1.265625 h 2.5 c 0.015625,0.203125 0.15625,1.5625 0.15625,1.65625 0,0.296875 -0.515625,0.328125 -0.71875,0.328125 C 4.59375,-0.3125 4.5,-0.3125 4.5,-0.109375 4.5,0 4.609375,0 4.640625,0 5.046875,0 5.46875,-0.03125 5.875,-0.03125 6.125,-0.03125 6.765625,0 7.015625,0 7.0625,0 7.1875,0 7.1875,-0.203125 7.1875,-0.3125 7.09375,-0.3125 6.953125,-0.3125 6.34375,-0.3125 6.34375,-0.375 6.3125,-0.671875 l -0.609375,-6.21875 c -0.015625,-0.203125 -0.015625,-0.25 -0.1875,-0.25 -0.15625,0 -0.203125,0.078125 -0.265625,0.171875 z M 2.984375,-2.609375 4.9375,-5.90625 5.265625,-2.609375 Z m 0,0"
             id="id-78bed3b7-3d6b-4474-973f-fa039e1a0bb8" />
        </g>
        <g
           id="id-6304d54d-0186-4951-9331-90740a745183">
          <path
             d="M 1.59375,-0.78125 C 1.5,-0.390625 1.46875,-0.3125 0.6875,-0.3125 c -0.171875,0 -0.265625,0 -0.265625,0.203125 C 0.421875,0 0.515625,0 0.6875,0 H 4.25 C 5.828125,0 7,-1.171875 7,-2.15625 7,-2.875 6.421875,-3.453125 5.453125,-3.5625 6.484375,-3.75 7.53125,-4.484375 7.53125,-5.4375 c 0,-0.734375 -0.65625,-1.375 -1.84375,-1.375 H 2.328125 c -0.1875,0 -0.28125,0 -0.28125,0.203125 0,0.109375 0.09375,0.109375 0.28125,0.109375 0.015625,0 0.203125,0 0.375,0.015625 0.171875,0.03125 0.265625,0.03125 0.265625,0.171875 0,0.03125 -0.015625,0.0625 -0.03125,0.1875 z m 1.5,-2.875 0.625,-2.46875 C 3.8125,-6.46875 3.828125,-6.5 4.25,-6.5 h 1.296875 c 0.875,0 1.078125,0.59375 1.078125,1.03125 0,0.875 -0.859375,1.8125 -2.0625,1.8125 z m -0.4375,3.34375 c -0.140625,0 -0.15625,0 -0.21875,0 -0.109375,-0.015625 -0.140625,-0.03125 -0.140625,-0.109375 0,-0.03125 0,-0.046875 0.0625,-0.21875 l 0.6875,-2.78125 h 1.875 c 0.953125,0 1.15625,0.734375 1.15625,1.15625 C 6.078125,-1.28125 5.1875,-0.3125 4,-0.3125 Z m 0,0"
             id="id-07dcadb8-ab09-4a81-ad44-5e7fa9690953" />
        </g>
        <g
           id="id-8148db5b-ad23-4196-93cd-8b4305a5c6b4">
          <path
             d="m 7.578125,-6.921875 c 0,-0.03125 -0.015625,-0.109375 -0.109375,-0.109375 -0.03125,0 -0.046875,0.015625 -0.15625,0.125 L 6.625,-6.140625 C 6.53125,-6.28125 6.078125,-7.03125 4.96875,-7.03125 2.734375,-7.03125 0.5,-4.828125 0.5,-2.515625 0.5,-0.875 1.671875,0.21875 3.203125,0.21875 c 0.859375,0 1.625,-0.390625 2.15625,-0.859375 0.921875,-0.8125 1.09375,-1.71875 1.09375,-1.75 C 6.453125,-2.5 6.34375,-2.5 6.328125,-2.5 c -0.0625,0 -0.109375,0.03125 -0.125,0.109375 -0.09375,0.28125 -0.328125,1 -1.015625,1.578125 -0.6875,0.546875 -1.3125,0.71875 -1.828125,0.71875 -0.890625,0 -1.953125,-0.515625 -1.953125,-2.0625 0,-0.578125 0.203125,-2.1875 1.203125,-3.359375 0.609375,-0.703125 1.546875,-1.203125 2.4375,-1.203125 1.015625,0 1.609375,0.765625 1.609375,1.921875 0,0.40625 -0.03125,0.40625 -0.03125,0.515625 0,0.09375 0.109375,0.09375 0.140625,0.09375 0.125,0 0.125,-0.015625 0.1875,-0.203125 z m 0,0"
             id="id-6e339a1b-e21f-4625-8701-aa5b13a431ca" />
        </g>
      </g>
    </defs>
    <g
       id="id-33a9a40c-6350-4d25-bc8c-e137fec2692f-7">
      <g
         id="id-1f7307e0-313e-4bfd-bbc0-900b8bfe06a1-0">
        <path
           d="m 2.46875,0 v -0.3125 c -0.671875,0 -0.703125,-0.046875 -0.703125,-0.4375 V -4.40625 L 0.375,-4.296875 v 0.3125 c 0.640625,0 0.734375,0.0625 0.734375,0.546875 V -0.75 c 0,0.4375 -0.109375,0.4375 -0.78125,0.4375 V 0 l 1.09375,-0.03125 C 1.78125,-0.03125 2.125,-0.015625 2.46875,0 Z m -0.5625,-6.015625 c 0,-0.28125 -0.21875,-0.53125 -0.515625,-0.53125 -0.34375,0 -0.546875,0.28125 -0.546875,0.53125 C 0.84375,-5.75 1.078125,-5.5 1.375,-5.5 c 0.34375,0 0.53125,-0.265625 0.53125,-0.515625 z m 0,0"
           id="id-fce9f024-1fb0-4fcd-af81-4463aef981e7-9" />
      </g>
      <g
         id="id-263524d4-22a0-4472-a1f5-bd1ca99741c4-3">
        <path
           d="m 5.25,0 v -0.3125 c -0.6875,0 -0.78125,-0.0625 -0.78125,-0.5625 V -6.921875 L 3.046875,-6.8125 V -6.5 c 0.6875,0 0.765625,0.0625 0.765625,0.5625 v 2.15625 c -0.28125,-0.359375 -0.71875,-0.625 -1.25,-0.625 -1.171875,0 -2.21875,0.984375 -2.21875,2.265625 0,1.265625 0.96875,2.25 2.109375,2.25 0.640625,0 1.078125,-0.34375 1.328125,-0.65625 v 0.65625 z M 3.78125,-1.171875 c 0,0.171875 0,0.1875 -0.109375,0.359375 C 3.375,-0.328125 2.9375,-0.109375 2.5,-0.109375 2.046875,-0.109375 1.6875,-0.375 1.453125,-0.75 1.203125,-1.15625 1.171875,-1.71875 1.171875,-2.140625 1.171875,-2.5 1.1875,-3.09375 1.46875,-3.546875 1.6875,-3.859375 2.0625,-4.1875 2.609375,-4.1875 c 0.34375,0 0.765625,0.15625 1.0625,0.59375 0.109375,0.171875 0.109375,0.1875 0.109375,0.375 z m 0,0"
           id="id-781a5cca-dbca-44c7-9ff1-7e4ebc373be1-6" />
      </g>
      <g
         id="id-a95dba83-a78a-427c-bbce-59ff1760b0ac-0">
        <path
           d="m 1.4375,-0.84375 c -0.25,0.390625 -0.46875,0.5625 -0.875,0.59375 -0.078125,0 -0.171875,0 -0.171875,0.140625 C 0.390625,-0.03125 0.453125,0 0.5,0 0.671875,0 0.90625,-0.03125 1.09375,-0.03125 1.3125,-0.03125 1.609375,0 1.8125,0 1.84375,0 1.953125,0 1.953125,-0.15625 1.953125,-0.25 1.859375,-0.25 1.828125,-0.25 1.78125,-0.265625 1.53125,-0.265625 1.53125,-0.453125 c 0,-0.09375 0.0625,-0.203125 0.09375,-0.265625 l 0.5625,-0.875 h 2 L 4.34375,-0.4375 C 4.328125,-0.359375 4.28125,-0.25 3.875,-0.25 c -0.09375,0 -0.1875,0 -0.1875,0.15625 C 3.6875,-0.0625 3.703125,0 3.796875,0 4,0 4.5,-0.03125 4.703125,-0.03125 c 0.125,0 0.28125,0.015625 0.40625,0.015625 C 5.234375,-0.015625 5.375,0 5.5,0 5.59375,0 5.640625,-0.0625 5.640625,-0.140625 5.640625,-0.25 5.5625,-0.25 5.453125,-0.25 c -0.40625,0 -0.421875,-0.0625 -0.4375,-0.21875 l -0.625,-4.3125 C 4.375,-4.921875 4.359375,-4.96875 4.234375,-4.96875 4.09375,-4.96875 4.0625,-4.90625 4,-4.8125 Z m 0.921875,-1 L 3.8125,-4.125 4.140625,-1.84375 Z m 0,0"
           id="id-274dfcd9-91d0-4658-8dff-41e5fdba816e-6" />
      </g>
    </g>
    <g
       id="id-33a9a40c-6350-4d25-bc8c-e137fec2692f-75">
      <g
         id="id-1f7307e0-313e-4bfd-bbc0-900b8bfe06a1-9">
        <path
           d="m 2.46875,0 v -0.3125 c -0.671875,0 -0.703125,-0.046875 -0.703125,-0.4375 V -4.40625 L 0.375,-4.296875 v 0.3125 c 0.640625,0 0.734375,0.0625 0.734375,0.546875 V -0.75 c 0,0.4375 -0.109375,0.4375 -0.78125,0.4375 V 0 l 1.09375,-0.03125 C 1.78125,-0.03125 2.125,-0.015625 2.46875,0 Z m -0.5625,-6.015625 c 0,-0.28125 -0.21875,-0.53125 -0.515625,-0.53125 -0.34375,0 -0.546875,0.28125 -0.546875,0.53125 C 0.84375,-5.75 1.078125,-5.5 1.375,-5.5 c 0.34375,0 0.53125,-0.265625 0.53125,-0.515625 z m 0,0"
           id="id-fce9f024-1fb0-4fcd-af81-4463aef981e7-2" />
      </g>
      <g
         id="id-263524d4-22a0-4472-a1f5-bd1ca99741c4-2">
        <path
           d="m 5.25,0 v -0.3125 c -0.6875,0 -0.78125,-0.0625 -0.78125,-0.5625 V -6.921875 L 3.046875,-6.8125 V -6.5 c 0.6875,0 0.765625,0.0625 0.765625,0.5625 v 2.15625 c -0.28125,-0.359375 -0.71875,-0.625 -1.25,-0.625 -1.171875,0 -2.21875,0.984375 -2.21875,2.265625 0,1.265625 0.96875,2.25 2.109375,2.25 0.640625,0 1.078125,-0.34375 1.328125,-0.65625 v 0.65625 z M 3.78125,-1.171875 c 0,0.171875 0,0.1875 -0.109375,0.359375 C 3.375,-0.328125 2.9375,-0.109375 2.5,-0.109375 2.046875,-0.109375 1.6875,-0.375 1.453125,-0.75 1.203125,-1.15625 1.171875,-1.71875 1.171875,-2.140625 1.171875,-2.5 1.1875,-3.09375 1.46875,-3.546875 1.6875,-3.859375 2.0625,-4.1875 2.609375,-4.1875 c 0.34375,0 0.765625,0.15625 1.0625,0.59375 0.109375,0.171875 0.109375,0.1875 0.109375,0.375 z m 0,0"
           id="id-781a5cca-dbca-44c7-9ff1-7e4ebc373be1-8" />
      </g>
      <g
         id="id-a95dba83-a78a-427c-bbce-59ff1760b0ac-9">
        <path
           d="m 1.4375,-0.84375 c -0.25,0.390625 -0.46875,0.5625 -0.875,0.59375 -0.078125,0 -0.171875,0 -0.171875,0.140625 C 0.390625,-0.03125 0.453125,0 0.5,0 0.671875,0 0.90625,-0.03125 1.09375,-0.03125 1.3125,-0.03125 1.609375,0 1.8125,0 1.84375,0 1.953125,0 1.953125,-0.15625 1.953125,-0.25 1.859375,-0.25 1.828125,-0.25 1.78125,-0.265625 1.53125,-0.265625 1.53125,-0.453125 c 0,-0.09375 0.0625,-0.203125 0.09375,-0.265625 l 0.5625,-0.875 h 2 L 4.34375,-0.4375 C 4.328125,-0.359375 4.28125,-0.25 3.875,-0.25 c -0.09375,0 -0.1875,0 -0.1875,0.15625 C 3.6875,-0.0625 3.703125,0 3.796875,0 4,0 4.5,-0.03125 4.703125,-0.03125 c 0.125,0 0.28125,0.015625 0.40625,0.015625 C 5.234375,-0.015625 5.375,0 5.5,0 5.59375,0 5.640625,-0.0625 5.640625,-0.140625 5.640625,-0.25 5.5625,-0.25 5.453125,-0.25 c -0.40625,0 -0.421875,-0.0625 -0.4375,-0.21875 l -0.625,-4.3125 C 4.375,-4.921875 4.359375,-4.96875 4.234375,-4.96875 4.09375,-4.96875 4.0625,-4.90625 4,-4.8125 Z m 0.921875,-1 L 3.8125,-4.125 4.140625,-1.84375 Z m 0,0"
           id="id-274dfcd9-91d0-4658-8dff-41e5fdba816e-7" />
      </g>
    </g>
    <filter
       style="color-interpolation-filters:sRGB"
       inkscape:label="Blur"
       id="filter1"
       x="-0.022727273"
       y="-0.022727273"
       width="1.0454545"
       height="1.0454545">
      <feGaussianBlur
         stdDeviation="5 5"
         result="blur"
         id="feGaussianBlur1" />
    </filter>
    <defs
       id="id-42fb57c5-896e-490f-b6d0-6ea732697f77">
      <g
         id="id-20feeb68-b698-473a-90a1-8b25cc64d807">
        <g
           id="id-1ae86093-7ff5-4313-ae11-cea4bb2e8057">
          <path
             d="m 3.65625,-3.984375 h 0.859375 c 0.203125,0 0.296875,0 0.296875,-0.203125 0,-0.109375 -0.09375,-0.109375 -0.265625,-0.109375 H 3.71875 L 3.921875,-5.4375 c 0.046875,-0.203125 0.1875,-0.90625 0.25,-1.03125 0.078125,-0.1875 0.25,-0.34375 0.46875,-0.34375 0.03125,0 0.296875,0 0.484375,0.1875 -0.4375,0.03125 -0.546875,0.390625 -0.546875,0.53125 0,0.234375 0.1875,0.359375 0.375,0.359375 C 5.21875,-5.734375 5.5,-5.96875 5.5,-6.34375 c 0,-0.453125 -0.453125,-0.6875 -0.859375,-0.6875 -0.34375,0 -0.96875,0.1875 -1.265625,1.171875 -0.0625,0.203125 -0.09375,0.3125 -0.328125,1.5625 h -0.6875 c -0.203125,0 -0.3125,0 -0.3125,0.1875 0,0.125 0.09375,0.125 0.28125,0.125 h 0.65625 L 2.25,-0.046875 c -0.1875,0.96875 -0.359375,1.875 -0.875,1.875 -0.046875,0 -0.28125,0 -0.484375,-0.1875 C 1.359375,1.609375 1.453125,1.25 1.453125,1.109375 1.453125,0.875 1.265625,0.75 1.078125,0.75 0.8125,0.75 0.53125,0.984375 0.53125,1.359375 c 0,0.4375 0.4375,0.6875 0.84375,0.6875 0.546875,0 0.953125,-0.59375 1.125,-0.96875 0.328125,-0.625 0.546875,-1.828125 0.5625,-1.90625 z m 0,0"
             id="id-bb7526a2-02db-4d83-b4b3-0becf09f3eb4" />
        </g>
        <g
           id="id-563076c6-bbf4-4d2d-8bfa-f0f609d450ae">
          <path
             d="m 2.03125,-0.015625 c 0,-0.65625 -0.25,-1.046875 -0.640625,-1.046875 -0.328125,0 -0.53125,0.25 -0.53125,0.53125 C 0.859375,-0.265625 1.0625,0 1.390625,0 1.5,0 1.640625,-0.046875 1.734375,-0.125 1.765625,-0.15625 1.78125,-0.15625 1.78125,-0.15625 c 0.015625,0 0.015625,0 0.015625,0.140625 0,0.75 -0.34375,1.34375 -0.671875,1.671875 -0.109375,0.109375 -0.109375,0.125 -0.109375,0.15625 0,0.078125 0.046875,0.109375 0.09375,0.109375 0.109375,0 0.921875,-0.765625 0.921875,-1.9375 z m 0,0"
             id="id-24d298e4-80c9-4d57-9198-dd73ebca9004" />
        </g>
        <g
           id="id-54e0861e-5c47-4f5f-95fe-7f1b964b06ce">
          <path
             d="M 4.6875,-3.765625 C 4.703125,-3.8125 4.71875,-3.875 4.71875,-3.9375 c 0,-0.171875 -0.109375,-0.265625 -0.28125,-0.265625 -0.09375,0 -0.375,0.0625 -0.40625,0.421875 -0.1875,-0.359375 -0.53125,-0.625 -0.9375,-0.625 -1.125,0 -2.359375,1.390625 -2.359375,2.828125 0,0.984375 0.59375,1.578125 1.3125,1.578125 0.59375,0 1.0625,-0.46875 1.15625,-0.578125 L 3.21875,-0.5625 C 3.015625,0.3125 2.890625,0.734375 2.890625,0.75 2.84375,0.84375 2.515625,1.828125 1.453125,1.828125 1.265625,1.828125 0.9375,1.8125 0.65625,1.71875 0.953125,1.640625 1.0625,1.375 1.0625,1.203125 c 0,-0.15625 -0.109375,-0.34375 -0.375,-0.34375 -0.21875,0 -0.53125,0.171875 -0.53125,0.578125 0,0.40625 0.359375,0.609375 1.3125,0.609375 1.25,0 1.96875,-0.78125 2.125,-1.375 z M 3.40625,-1.28125 C 3.34375,-1.015625 3.109375,-0.765625 2.890625,-0.578125 2.6875,-0.40625 2.375,-0.21875 2.078125,-0.21875 c -0.5,0 -0.640625,-0.515625 -0.640625,-0.921875 0,-0.46875 0.28125,-1.65625 0.5625,-2.15625 C 2.265625,-3.78125 2.6875,-4.1875 3.109375,-4.1875 c 0.65625,0 0.796875,0.8125 0.796875,0.859375 0,0.046875 -0.015625,0.109375 -0.03125,0.140625 z m 0,0"
             id="id-3e225ed2-dd02-4ba2-8144-7d3028782339" />
        </g>
        <g
           id="id-5deb05ae-dce3-4781-b78f-288bb5aacf73">
          <path
             d="m 2.859375,-6.8125 c 0,0 0,-0.109375 -0.125,-0.109375 -0.234375,0 -0.953125,0.078125 -1.21875,0.109375 -0.078125,0 -0.1875,0.015625 -0.1875,0.1875 0,0.125 0.09375,0.125 0.234375,0.125 0.484375,0 0.5,0.0625 0.5,0.171875 L 2.03125,-6.125 0.59375,-0.390625 c -0.046875,0.140625 -0.046875,0.15625 -0.046875,0.21875 0,0.234375 0.203125,0.28125 0.296875,0.28125 0.15625,0 0.3125,-0.125 0.359375,-0.265625 l 0.1875,-0.75 0.21875,-0.890625 C 1.671875,-2.03125 1.734375,-2.25 1.78125,-2.46875 1.796875,-2.53125 1.890625,-2.859375 1.890625,-2.921875 1.921875,-3.015625 2.234375,-3.5625 2.578125,-3.84375 2.796875,-4 3.09375,-4.1875 3.53125,-4.1875 c 0.421875,0 0.53125,0.34375 0.53125,0.703125 0,0.53125 -0.375,1.625 -0.609375,2.234375 C 3.375,-1.03125 3.3125,-0.90625 3.3125,-0.703125 c 0,0.46875 0.359375,0.8125 0.828125,0.8125 0.9375,0 1.296875,-1.453125 1.296875,-1.53125 0,-0.109375 -0.078125,-0.109375 -0.109375,-0.109375 -0.109375,0 -0.109375,0.03125 -0.15625,0.1875 -0.140625,0.53125 -0.46875,1.234375 -1.015625,1.234375 -0.171875,0 -0.234375,-0.09375 -0.234375,-0.328125 0,-0.25 0.078125,-0.484375 0.171875,-0.703125 0.15625,-0.4375 0.609375,-1.625 0.609375,-2.203125 0,-0.640625 -0.390625,-1.0625 -1.140625,-1.0625 -0.625,0 -1.109375,0.3125 -1.484375,0.765625 z m 0,0"
             id="id-b680f596-d484-4111-8e0b-212f32be9cf6" />
        </g>
        <g
           id="id-45ae072e-ec66-417b-893a-be772b492637">
          <path
             d="m 7.578125,-6.921875 c 0,-0.03125 -0.015625,-0.109375 -0.109375,-0.109375 -0.03125,0 -0.046875,0.015625 -0.15625,0.125 L 6.625,-6.140625 C 6.53125,-6.28125 6.078125,-7.03125 4.96875,-7.03125 2.734375,-7.03125 0.5,-4.828125 0.5,-2.515625 c 0,1.59375 1.109375,2.734375 2.71875,2.734375 0.4375,0 0.890625,-0.09375 1.25,-0.234375 0.5,-0.203125 0.6875,-0.40625 0.859375,-0.609375 0.09375,0.25 0.359375,0.609375 0.453125,0.609375 0.046875,0 0.078125,-0.03125 0.078125,-0.03125 C 5.875,-0.0625 5.96875,-0.453125 6.015625,-0.65625 l 0.1875,-0.765625 C 6.25,-1.59375 6.296875,-1.765625 6.34375,-1.9375 c 0.109375,-0.4375 0.109375,-0.46875 0.6875,-0.46875 0.046875,0 0.15625,-0.015625 0.15625,-0.203125 0,-0.078125 -0.046875,-0.109375 -0.125,-0.109375 -0.234375,0 -0.828125,0.03125 -1.046875,0.03125 -0.3125,0 -1.09375,-0.03125 -1.40625,-0.03125 -0.078125,0 -0.203125,0 -0.203125,0.203125 0,0.109375 0.078125,0.109375 0.296875,0.109375 0.015625,0 0.296875,0 0.53125,0.015625 0.265625,0.03125 0.3125,0.0625 0.3125,0.1875 0,0.09375 -0.109375,0.53125 -0.21875,0.90625 -0.28125,1.09375 -1.5625,1.203125 -1.921875,1.203125 -0.953125,0 -2,-0.5625 -2,-2.09375 0,-0.3125 0.09375,-1.953125 1.140625,-3.25 0.546875,-0.671875 1.515625,-1.28125 2.5,-1.28125 1.015625,0 1.609375,0.765625 1.609375,1.921875 0,0.40625 -0.03125,0.40625 -0.03125,0.515625 0,0.09375 0.109375,0.09375 0.140625,0.09375 0.125,0 0.125,-0.015625 0.1875,-0.203125 z m 0,0"
             id="id-06488da2-0989-4bf6-ac61-74709800c141" />
        </g>
        <g
           id="id-42234a64-2499-4ec7-b137-965bc6870e8a">
          <path
             d="m 5.46875,-2.296875 c 0.15625,0 0.34375,0 0.34375,-0.203125 0,-0.1875 -0.1875,-0.1875 -0.34375,-0.1875 H 1.234375 C 1.359375,-4.03125 2.5,-4.984375 3.90625,-4.984375 h 1.5625 c 0.15625,0 0.34375,0 0.34375,-0.203125 0,-0.203125 -0.1875,-0.203125 -0.34375,-0.203125 H 3.890625 c -1.703125,0 -3.0625,1.296875 -3.0625,2.890625 0,1.609375 1.359375,2.90625 3.0625,2.90625 H 5.46875 c 0.15625,0 0.34375,0 0.34375,-0.203125 C 5.8125,0 5.625,0 5.46875,0 H 3.90625 C 2.5,0 1.359375,-0.953125 1.234375,-2.296875 Z m 0,0"
             id="id-72b258d6-7b97-40d8-abfb-6f09f4ff27e0" />
        </g>
      </g>
    </defs>
    <g
       id="g13">
      <g
         id="g12">
        <path
           d="m 4.9375,-1.5625 c 0,-0.0625 -0.046875,-0.078125 -0.09375,-0.078125 -0.171875,0 -0.40625,0.15625 -0.421875,0.15625 -0.1875,0.125 -0.234375,0.203125 -0.359375,0.375 -0.296875,0.46875 -0.75,0.796875 -1.390625,0.796875 -0.890625,0 -1.703125,-0.640625 -1.703125,-2.140625 0,-0.890625 0.359375,-2.078125 0.890625,-2.875 0.4375,-0.640625 0.96875,-1.15625 2,-1.15625 0.375,0 0.609375,0.140625 0.609375,0.515625 0,0.34375 -0.359375,1.046875 -0.484375,1.25 -0.0625,0.109375 -0.0625,0.140625 -0.0625,0.15625 0,0.0625 0.0625,0.0625 0.109375,0.0625 0.203125,0 0.578125,-0.21875 0.6875,-0.375 0.03125,-0.046875 0.609375,-1.015625 0.609375,-1.53125 0,-0.546875 -0.453125,-0.625 -0.8125,-0.625 -1.4375,0 -2.625,0.953125 -3.09375,1.515625 C 0.234375,-4.09375 0.125,-2.546875 0.125,-2.03125 0.125,-0.5625 0.859375,0.234375 2.015625,0.234375 3.625,0.234375 4.9375,-1.3125 4.9375,-1.5625 Z m 0,0"
           id="path11" />
      </g>
    </g>
    <g
       id="id-6e768bfd-1025-4eb8-8538-376513d9bffe">
      <g
         id="id-59dea406-9f53-42b9-9ca8-e9f5625f5c06">
        <path
           d="m 3.015625,-3.234375 h 0.96875 c 0.75,0 0.828125,0.15625 0.828125,0.4375 0,0.078125 0,0.1875 -0.0625,0.5 C 4.71875,-2.25 4.71875,-2.21875 4.71875,-2.1875 c 0,0.078125 0.0625,0.109375 0.109375,0.109375 0.109375,0 0.109375,-0.03125 0.15625,-0.203125 L 5.53125,-4.453125 C 5.5625,-4.5625 5.5625,-4.578125 5.5625,-4.609375 5.5625,-4.625 5.546875,-4.71875 5.4375,-4.71875 5.34375,-4.71875 5.328125,-4.671875 5.296875,-4.5 5.078125,-3.734375 4.859375,-3.546875 4,-3.546875 H 3.09375 l 0.640625,-2.53125 C 3.828125,-6.4375 3.84375,-6.46875 4.28125,-6.46875 h 1.3125 c 1.21875,0 1.453125,0.328125 1.453125,1.09375 0,0.234375 0,0.265625 -0.03125,0.546875 C 7,-4.703125 7,-4.6875 7,-4.65625 c 0,0.046875 0.03125,0.125 0.125,0.125 0.109375,0 0.109375,-0.0625 0.125,-0.25 L 7.453125,-6.515625 C 7.484375,-6.78125 7.4375,-6.78125 7.1875,-6.78125 H 2.296875 c -0.1875,0 -0.296875,0 -0.296875,0.203125 0,0.109375 0.09375,0.109375 0.28125,0.109375 0.375,0 0.65625,0 0.65625,0.171875 0,0.046875 0,0.0625 -0.0625,0.25 L 1.5625,-0.78125 c -0.09375,0.390625 -0.109375,0.46875 -0.90625,0.46875 -0.171875,0 -0.28125,0 -0.28125,0.1875 C 0.375,0 0.5,0 0.53125,0 0.8125,0 1.5625,-0.03125 1.84375,-0.03125 2.171875,-0.03125 3,0 3.328125,0 3.421875,0 3.53125,0 3.53125,-0.1875 3.53125,-0.265625 3.484375,-0.296875 3.484375,-0.296875 3.453125,-0.3125 3.421875,-0.3125 3.203125,-0.3125 c -0.21875,0 -0.265625,0 -0.515625,-0.015625 -0.296875,-0.03125 -0.328125,-0.078125 -0.328125,-0.203125 0,-0.015625 0,-0.078125 0.046875,-0.21875 z m 0,0"
           id="id-66d5811c-a9fd-4d2c-82fd-873a6a123dfe" />
      </g>
    </g>
    <g
       id="g3">
      <g
         id="g2">
        <path
           d="m 4.9375,-1.5625 c 0,-0.0625 -0.046875,-0.078125 -0.09375,-0.078125 -0.171875,0 -0.40625,0.15625 -0.421875,0.15625 -0.1875,0.125 -0.234375,0.203125 -0.359375,0.375 -0.296875,0.46875 -0.75,0.796875 -1.390625,0.796875 -0.890625,0 -1.703125,-0.640625 -1.703125,-2.140625 0,-0.890625 0.359375,-2.078125 0.890625,-2.875 0.4375,-0.640625 0.96875,-1.15625 2,-1.15625 0.375,0 0.609375,0.140625 0.609375,0.515625 0,0.34375 -0.359375,1.046875 -0.484375,1.25 -0.0625,0.109375 -0.0625,0.140625 -0.0625,0.15625 0,0.0625 0.0625,0.0625 0.109375,0.0625 0.203125,0 0.578125,-0.21875 0.6875,-0.375 0.03125,-0.046875 0.609375,-1.015625 0.609375,-1.53125 0,-0.546875 -0.453125,-0.625 -0.8125,-0.625 -1.4375,0 -2.625,0.953125 -3.09375,1.515625 C 0.234375,-4.09375 0.125,-2.546875 0.125,-2.03125 0.125,-0.5625 0.859375,0.234375 2.015625,0.234375 3.625,0.234375 4.9375,-1.3125 4.9375,-1.5625 Z m 0,0"
           id="path1" />
      </g>
    </g>
    <g
       id="g5">
      <g
         id="g4">
        <path
           d="m 3.015625,-3.234375 h 0.96875 c 0.75,0 0.828125,0.15625 0.828125,0.4375 0,0.078125 0,0.1875 -0.0625,0.5 C 4.71875,-2.25 4.71875,-2.21875 4.71875,-2.1875 c 0,0.078125 0.0625,0.109375 0.109375,0.109375 0.109375,0 0.109375,-0.03125 0.15625,-0.203125 L 5.53125,-4.453125 C 5.5625,-4.5625 5.5625,-4.578125 5.5625,-4.609375 5.5625,-4.625 5.546875,-4.71875 5.4375,-4.71875 5.34375,-4.71875 5.328125,-4.671875 5.296875,-4.5 5.078125,-3.734375 4.859375,-3.546875 4,-3.546875 H 3.09375 l 0.640625,-2.53125 C 3.828125,-6.4375 3.84375,-6.46875 4.28125,-6.46875 h 1.3125 c 1.21875,0 1.453125,0.328125 1.453125,1.09375 0,0.234375 0,0.265625 -0.03125,0.546875 C 7,-4.703125 7,-4.6875 7,-4.65625 c 0,0.046875 0.03125,0.125 0.125,0.125 0.109375,0 0.109375,-0.0625 0.125,-0.25 L 7.453125,-6.515625 C 7.484375,-6.78125 7.4375,-6.78125 7.1875,-6.78125 H 2.296875 c -0.1875,0 -0.296875,0 -0.296875,0.203125 0,0.109375 0.09375,0.109375 0.28125,0.109375 0.375,0 0.65625,0 0.65625,0.171875 0,0.046875 0,0.0625 -0.0625,0.25 L 1.5625,-0.78125 c -0.09375,0.390625 -0.109375,0.46875 -0.90625,0.46875 -0.171875,0 -0.28125,0 -0.28125,0.1875 C 0.375,0 0.5,0 0.53125,0 0.8125,0 1.5625,-0.03125 1.84375,-0.03125 2.171875,-0.03125 3,0 3.328125,0 3.421875,0 3.53125,0 3.53125,-0.1875 3.53125,-0.265625 3.484375,-0.296875 3.484375,-0.296875 3.453125,-0.3125 3.421875,-0.3125 3.203125,-0.3125 c -0.21875,0 -0.265625,0 -0.515625,-0.015625 -0.296875,-0.03125 -0.328125,-0.078125 -0.328125,-0.203125 0,-0.015625 0,-0.078125 0.046875,-0.21875 z m 0,0"
           id="path2" />
      </g>
    </g>
  </defs>
  <metadata
     id="metadata5">
    <rdf:RDF>
      <cc:Work
         rdf:about="">
        <dc:format>image/svg+xml</dc:format>
        <dc:type
           rdf:resource="http://purl.org/dc/dcmitype/StillImage" />
      </cc:Work>
    </rdf:RDF>
  </metadata>
  <g
     id="g16"
     transform="translate(0,-36.026585)"
     style="stroke-width:1;stroke-dasharray:none">
    <path
       style="fill:none;fill-opacity:1;fill-rule:evenodd;stroke:#c8c8ca;stroke-width:1.5;stroke-dasharray:none;stroke-dashoffset:5.95;stroke-opacity:1"
       id="path8"
       sodipodi:type="arc"
       sodipodi:cx="-174.02554"
       sodipodi:cy="113.95299"
       sodipodi:rx="36"
       sodipodi:ry="36"
       sodipodi:start="1.3962634"
       sodipodi:end="0.17453293"
       sodipodi:arc-type="arc"
       d="m -167.77421,149.40607 a 36,36 0 0 1 -38.18372,-18.83013 36,36 0 0 1 6.47654,-42.078796 36,36 0 0 1 42.0788,-6.476546 36,36 0 0 1 18.83013,38.183722"
       sodipodi:open="true"
       transform="rotate(-90)" />
    <path
       style="fill:none;fill-opacity:1;fill-rule:evenodd;stroke:#c8c8ca;stroke-width:1.5;stroke-linecap:butt;stroke-dasharray:none;stroke-dashoffset:5.95;stroke-opacity:1"
       d="m 114.41923,131.67806 5.78509,6.8944 -6.85763,5.75424"
       id="path15"
       sodipodi:nodetypes="ccc" />
  </g>
  <g
     id="g16-2"
     transform="rotate(180,143.95299,126.01226)">
    <path
       style="fill:none;fill-opacity:1;fill-rule:evenodd;stroke:#c8c8ca;stroke-width:1.5;stroke-dasharray:none;stroke-dashoffset:5.95;stroke-opacity:1"
       id="path8-8"
       sodipodi:type="arc"
       sodipodi:cx="-174.02554"
       sodipodi:cy="113.95299"
       sodipodi:rx="36"
       sodipodi:ry="36"
       sodipodi:start="1.3962634"
       sodipodi:end="0.17453293"
       sodipodi:arc-type="arc"
       d="m -167.77421,149.40607 a 36,36 0 0 1 -38.18372,-18.83013 36,36 0 0 1 6.47654,-42.078796 36,36 0 0 1 42.0788,-6.476546 36,36 0 0 1 18.83013,38.183722"
       sodipodi:open="true"
       transform="rotate(-90)" />
    <path
       style="fill:none;fill-opacity:1;fill-rule:evenodd;stroke:#c8c8ca;stroke-width:1.5;stroke-linecap:butt;stroke-dasharray:none;stroke-dashoffset:5.95;stroke-opacity:1"
       d="m 114.41923,131.67806 5.78509,6.8944 -6.85763,5.75424"
       id="path15-7"
       sodipodi:nodetypes="ccc" />
  </g>
  <g
     id="g17"
     transform="rotate(-52.5,24.186921,217.22642)">
    <path
       id="path8-8-8"
       style="color:#000000;fill:#c8c8ca;fill-opacity:0.35;fill-rule:evenodd;stroke-dashoffset:5.95;-inkscape-stroke:none"
       d="m 179,-213.63477 c 0.0162,5.7387 1.37558,11.51745 4.15234,16.85157 7.40472,14.22431 23.18591,22.00732 38.97852,19.22265 l -0.25977,-1.47656 c -15.15392,2.67205 -30.28342,-4.78843 -37.38867,-18.4375 -7.10525,-13.64906 -4.53895,-30.32238 6.3418,-41.20312 10.88075,-10.88076 27.55407,-13.44705 41.20312,-6.3418 13.16093,6.85114 20.56417,21.16325 18.68164,35.76367 l -4.68554,-5.58398 -1.14844,0.96289 6.23633,7.43359 7.46875,-6.26758 -0.96485,-1.14844 -5.38867,4.52149 c 1.83459,-15.12204 -5.8742,-29.91451 -19.50781,-37.01172 -5.33411,-2.77677 -11.11282,-4.13618 -16.85156,-4.15234 -9.56458,-0.0269 -19.01644,3.67659 -26.10352,10.76367 -7.08708,7.08708 -10.79065,16.53903 -10.76367,26.10351 z"
       transform="rotate(90)" />
  </g>
  <g
     id="g17-0"
     transform="rotate(-17.5,-283.69775,305.99755)">
    <path
       id="path8-8-8-3"
       style="color:#000000;fill:#c8c8ca;fill-opacity:0.35;fill-rule:evenodd;stroke-dashoffset:5.95;-inkscape-stroke:none"
       d="m 179,-213.63477 c 0.0162,5.7387 1.37558,11.51745 4.15234,16.85157 7.40472,14.22431 23.18591,22.00732 38.97852,19.22265 l -0.25977,-1.47656 c -15.15392,2.67205 -30.28342,-4.78843 -37.38867,-18.4375 -7.10525,-13.64906 -4.53895,-30.32238 6.3418,-41.20312 10.88075,-10.88076 27.55407,-13.44705 41.20312,-6.3418 13.16093,6.85114 20.56417,21.16325 18.68164,35.76367 l -4.68554,-5.58398 -1.14844,0.96289 6.23633,7.43359 7.46875,-6.26758 -0.96485,-1.14844 -5.38867,4.52149 c 1.83459,-15.12204 -5.8742,-29.91451 -19.50781,-37.01172 -5.33411,-2.77677 -11.11282,-4.13618 -16.85156,-4.15234 -9.56458,-0.0269 -19.01644,3.67659 -26.10352,10.76367 -7.08708,7.08708 -10.79065,16.53903 -10.76367,26.10351 z"
       transform="rotate(90)" />
  </g>
  <g
     id="g17-1"
     transform="rotate(17.5,611.4496,47.725635)">
    <path
       id="path8-8-8-0"
       style="color:#000000;fill:#c8c8ca;fill-opacity:0.35;fill-rule:evenodd;stroke-dashoffset:5.95;-inkscape-stroke:none"
       d="m 179,-213.63477 c 0.0162,5.7387 1.37558,11.51745 4.15234,16.85157 7.40472,14.22431 23.18591,22.00732 38.97852,19.22265 l -0.25977,-1.47656 c -15.15392,2.67205 -30.28342,-4.78843 -37.38867,-18.4375 -7.10525,-13.64906 -4.53895,-30.32238 6.3418,-41.20312 10.88075,-10.88076 27.55407,-13.44705 41.20312,-6.3418 13.16093,6.85114 20.56417,21.16325 18.68164,35.76367 l -4.68554,-5.58398 -1.14844,0.96289 6.23633,7.43359 7.46875,-6.26758 -0.96485,-1.14844 -5.38867,4.52149 c 1.83459,-15.12204 -5.8742,-29.91451 -19.50781,-37.01172 -5.33411,-2.77677 -11.11282,-4.13618 -16.85156,-4.15234 -9.56458,-0.0269 -19.01644,3.67659 -26.10352,10.76367 -7.08708,7.08708 -10.79065,16.53903 -10.76367,26.10351 z"
       transform="rotate(90)" />
  </g>
  <g
     id="g17-2"
     transform="rotate(52.5,303.56732,136.55721)">
    <path
       id="path8-8-8-06"
       style="color:#000000;fill:#c8c8ca;fill-opacity:0.35;fill-rule:evenodd;stroke-dashoffset:5.95;-inkscape-stroke:none"
       d="m 179,-213.63477 c 0.0162,5.7387 1.37558,11.51745 4.15234,16.85157 7.40472,14.22431 23.18591,22.00732 38.97852,19.22265 l -0.25977,-1.47656 c -15.15392,2.67205 -30.28342,-4.78843 -37.38867,-18.4375 -7.10525,-13.64906 -4.53895,-30.32238 6.3418,-41.20312 10.88075,-10.88076 27.55407,-13.44705 41.20312,-6.3418 13.16093,6.85114 20.56417,21.16325 18.68164,35.76367 l -4.68554,-5.58398 -1.14844,0.96289 6.23633,7.43359 7.46875,-6.26758 -0.96485,-1.14844 -5.38867,4.52149 c 1.83459,-15.12204 -5.8742,-29.91451 -19.50781,-37.01172 -5.33411,-2.77677 -11.11282,-4.13618 -16.85156,-4.15234 -9.56458,-0.0269 -19.01644,3.67659 -26.10352,10.76367 -7.08708,7.08708 -10.79065,16.53903 -10.76367,26.10351 z"
       transform="rotate(90)" />
  </g>
  <g
     id="g16-2-9"
     transform="rotate(145,149.66009,126.0069)">
    <path
       style="fill:none;fill-opacity:1;fill-rule:evenodd;stroke:#c8c8ca;stroke-width:1.5;stroke-dasharray:none;stroke-dashoffset:5.95;stroke-opacity:1"
       id="path8-8-3"
       sodipodi:type="arc"
       sodipodi:cx="-174.02554"
       sodipodi:cy="113.95299"
       sodipodi:rx="36"
       sodipodi:ry="36"
       sodipodi:start="1.3962634"
       sodipodi:end="0.17453293"
       sodipodi:arc-type="arc"
       d="m -167.77421,149.40607 a 36,36 0 0 1 -38.18372,-18.83013 36,36 0 0 1 6.47654,-42.078796 36,36 0 0 1 42.0788,-6.476546 36,36 0 0 1 18.83013,38.183722"
       sodipodi:open="true"
       transform="rotate(-90)" />
    <path
       style="fill:none;fill-opacity:1;fill-rule:evenodd;stroke:#c8c8ca;stroke-width:1.5;stroke-linecap:butt;stroke-dasharray:none;stroke-dashoffset:5.95;stroke-opacity:1"
       d="m 114.41923,131.67806 5.78509,6.8944 -6.85763,5.75424"
       id="path15-7-4"
       sodipodi:nodetypes="ccc" />
  </g>
  <g
     id="g16-2-3"
     transform="rotate(-145,138.2929,125.99207)">
    <path
       style="fill:none;fill-opacity:1;fill-rule:evenodd;stroke:#c8c8ca;stroke-width:1.5;stroke-dasharray:none;stroke-dashoffset:5.95;stroke-opacity:1"
       id="path8-8-6"
       sodipodi:type="arc"
       sodipodi:cx="-174.02554"
       sodipodi:cy="113.95299"
       sodipodi:rx="36"
       sodipodi:ry="36"
       sodipodi:start="1.3962634"
       sodipodi:end="0.17453293"
       sodipodi:arc-type="arc"
       d="m -167.77421,149.40607 a 36,36 0 0 1 -38.18372,-18.83013 36,36 0 0 1 6.47654,-42.078796 36,36 0 0 1 42.0788,-6.476546 36,36 0 0 1 18.83013,38.183722"
       sodipodi:open="true"
       transform="rotate(-90)" />
    <path
       style="fill:none;fill-opacity:1;fill-rule:evenodd;stroke:#c8c8ca;stroke-width:1.5;stroke-linecap:butt;stroke-dasharray:none;stroke-dashoffset:5.95;stroke-opacity:1"
       d="m 114.41923,131.67806 5.78509,6.8944 -6.85763,5.75424"
       id="path15-7-2"
       sodipodi:nodetypes="ccc" />
  </g>
  <g
     id="g11"
     transform="translate(-90.16301,-86.541307)">
    <circle
       style="fill:none;fill-rule:evenodd;stroke:#c8c8ca;stroke-width:1;stroke-dasharray:none;stroke-dashoffset:5.95;stroke-opacity:0.988702"
       id="path7-2"
       cx="234.116"
       cy="194.54027"
       r="20.072006" />
    <g
       id="g14"
       transform="matrix(0.7958857,0,0,0.79637524,115.25859,-103.80433)"
       style="stroke-width:1.25608">
      <g
         id="g8-61"
         transform="translate(-132.5619,290.44683)"
         style="stroke-width:1.25608">
        <path
           style="fill:none;stroke:#c8c8ca;stroke-width:1.25608;stroke-dasharray:none;stroke-opacity:1"
           d="m 284.88617,89.545743 -2.46802,3.61968 2.46802,3.61968"
           id="path6-75-8" />
        <path
           style="fill:none;fill-rule:evenodd;stroke:#c8c8ca;stroke-width:1.25608;stroke-dasharray:none;stroke-dashoffset:5.95;stroke-opacity:0.988702"
           id="path7-3-7"
           sodipodi:type="arc"
           sodipodi:cx="79.317116"
           sodipodi:cy="-284.85999"
           sodipodi:rx="14.061941"
           sodipodi:ry="14.061941"
           sodipodi:start="1.3962634"
           sodipodi:end="0.17453293"
           sodipodi:open="true"
           sodipodi:arc-type="arc"
           d="m 81.758946,-271.01168 a 14.061941,14.061941 0 0 1 -14.914924,-7.35522 14.061941,14.061941 0 0 1 2.5298,-16.43638 14.061941,14.061941 0 0 1 16.436376,-2.5298 14.061941,14.061941 0 0 1 7.355226,14.91493"
           transform="rotate(90)" />
        <g
           transform="matrix(3.3210811,0,0,3.3210811,266.67841,84.45792)"
           ns134:version="1.10.2"
           ns134:texconverter="xelatex"
           ns134:pdfconverter="inkscape"
           ns134:text="$$\\mathcal{C}$$"
           ns134:preamble="/home/whooie/Documents/templates/latex/whooie/inkscape_textext.sty"
           ns134:scale="1.0"
           ns134:alignment="middle center"
           ns134:stroke-to-path="0"
           ns134:inkscapeversion="1.3.2"
           id="g6724-9"
           ns134:jacobian_sqrt="1.33333"
           style="fill:#c8c8ca;fill-opacity:1;stroke-width:0.504283">
          <defs
             id="id-fe9a1629-edd8-4024-968b-08a756782d60-20">
            <g
               id="g7">
              <g
                 id="g6">
                <path
                   d="m 4.9375,-1.5625 c 0,-0.0625 -0.046875,-0.078125 -0.09375,-0.078125 -0.171875,0 -0.40625,0.15625 -0.421875,0.15625 -0.1875,0.125 -0.234375,0.203125 -0.359375,0.375 -0.296875,0.46875 -0.75,0.796875 -1.390625,0.796875 -0.890625,0 -1.703125,-0.640625 -1.703125,-2.140625 0,-0.890625 0.359375,-2.078125 0.890625,-2.875 0.4375,-0.640625 0.96875,-1.15625 2,-1.15625 0.375,0 0.609375,0.140625 0.609375,0.515625 0,0.34375 -0.359375,1.046875 -0.484375,1.25 -0.0625,0.109375 -0.0625,0.140625 -0.0625,0.15625 0,0.0625 0.0625,0.0625 0.109375,0.0625 0.203125,0 0.578125,-0.21875 0.6875,-0.375 0.03125,-0.046875 0.609375,-1.015625 0.609375,-1.53125 0,-0.546875 -0.453125,-0.625 -0.8125,-0.625 -1.4375,0 -2.625,0.953125 -3.09375,1.515625 C 0.234375,-4.09375 0.125,-2.546875 0.125,-2.03125 0.125,-0.5625 0.859375,0.234375 2.015625,0.234375 3.625,0.234375 4.9375,-1.3125 4.9375,-1.5625 Z m 0,0"
                   id="path5" />
              </g>
            </g>
          </defs>
          <g
             fill="#000000"
             fill-opacity="1"
             id="id-0293d0f4-5efe-4380-afea-122f8e7adbb1-5"
             transform="translate(-302.836,-139.689)"
             style="fill:#c8c8ca;fill-opacity:1;stroke-width:0.504283">
            <g
               transform="translate(302.711,146.72)"
               id="g6491-9"
               style="fill:#c8c8ca;fill-opacity:1;stroke-width:0.504283">
              <path
                 d="m 3.4876496,-3.2100573 c 0,-0.043671 -0.032753,-0.054588 -0.065506,-0.054588 -0.1200946,0 -0.28386,0.1091769 -0.2947777,0.1091769 -0.1310123,0.087342 -0.1637654,0.14193 -0.251107,0.2620247 -0.2074361,0.3275308 -0.5240492,0.5568023 -0.9716747,0.5568023 -0.6223085,0 -1.19002856,-0.4476254 -1.19002856,-1.495724 0,-0.6223085 0.25110695,-1.4520532 0.62230856,-2.0088556 0.3056954,-0.4476254 0.676897,-0.8079093 1.3974647,-0.8079093 0.2620247,0 0.4257901,0.098259 0.4257901,0.3602839 0,0.2401893 -0.251107,0.7314855 -0.3384485,0.8734155 -0.043671,0.076424 -0.043671,0.098259 -0.043671,0.1091769 0,0.043671 0.043671,0.043671 0.076424,0.043671 0.14193,0 0.4039546,-0.1528477 0.4803785,-0.2620247 0.021835,-0.032753 0.42579,-0.70965 0.42579,-1.0699339 0,-0.3821193 -0.3166131,-0.4367077 -0.56772,-0.4367077 -1.0044278,0 -1.8341725,0.6659793 -2.1617033,1.0590162 C 0.20142385,-4.9787237 0.125,-3.897872 0.125,-3.5375881 c 0,1.0262631 0.51313159,1.5830655 1.3210409,1.5830655 1.1245224,0 2.0416087,-1.0808516 2.0416087,-1.2555347 z m 0,0"
                 id="id-117d2a10-b46e-4ad5-846a-a6ab38bded47-2"
                 style="fill:#c8c8ca;fill-opacity:1;stroke-width:0.504283" />
            </g>
          </g>
        </g>
      </g>
      <g
         transform="matrix(1.2327346,0,0,1.2327346,149.92939,363.58521)"
         ns134:version="1.10.2"
         ns134:texconverter="xelatex"
         ns134:pdfconverter="inkscape"
         ns134:text="$$F$$"
         ns134:preamble="/home/whooie/Documents/templates/latex/whooie/inkscape_textext.sty"
         ns134:scale="2.77591053977635"
         ns134:alignment="middle center"
         ns134:stroke-to-path="0"
         ns134:inkscapeversion="1.3.2"
         id="g9336"
         ns134:jacobian_sqrt="3.7012"
         style="fill:#c8c8ca;fill-opacity:1;stroke-width:3.77128">
        <defs
           id="id-d46efa40-9710-472f-93f6-1e7936eb3f37">
          <g
             id="g10">
            <g
               id="g9">
              <path
                 d="m 3.015625,-3.234375 h 0.96875 c 0.75,0 0.828125,0.15625 0.828125,0.4375 0,0.078125 0,0.1875 -0.0625,0.5 C 4.71875,-2.25 4.71875,-2.21875 4.71875,-2.1875 c 0,0.078125 0.0625,0.109375 0.109375,0.109375 0.109375,0 0.109375,-0.03125 0.15625,-0.203125 L 5.53125,-4.453125 C 5.5625,-4.5625 5.5625,-4.578125 5.5625,-4.609375 5.5625,-4.625 5.546875,-4.71875 5.4375,-4.71875 5.34375,-4.71875 5.328125,-4.671875 5.296875,-4.5 5.078125,-3.734375 4.859375,-3.546875 4,-3.546875 H 3.09375 l 0.640625,-2.53125 C 3.828125,-6.4375 3.84375,-6.46875 4.28125,-6.46875 h 1.3125 c 1.21875,0 1.453125,0.328125 1.453125,1.09375 0,0.234375 0,0.265625 -0.03125,0.546875 C 7,-4.703125 7,-4.6875 7,-4.65625 c 0,0.046875 0.03125,0.125 0.125,0.125 0.109375,0 0.109375,-0.0625 0.125,-0.25 L 7.453125,-6.515625 C 7.484375,-6.78125 7.4375,-6.78125 7.1875,-6.78125 H 2.296875 c -0.1875,0 -0.296875,0 -0.296875,0.203125 0,0.109375 0.09375,0.109375 0.28125,0.109375 0.375,0 0.65625,0 0.65625,0.171875 0,0.046875 0,0.0625 -0.0625,0.25 L 1.5625,-0.78125 c -0.09375,0.390625 -0.109375,0.46875 -0.90625,0.46875 -0.171875,0 -0.28125,0 -0.28125,0.1875 C 0.375,0 0.5,0 0.53125,0 0.8125,0 1.5625,-0.03125 1.84375,-0.03125 2.171875,-0.03125 3,0 3.328125,0 3.421875,0 3.53125,0 3.53125,-0.1875 3.53125,-0.265625 3.484375,-0.296875 3.484375,-0.296875 3.453125,-0.3125 3.421875,-0.3125 3.203125,-0.3125 c -0.21875,0 -0.265625,0 -0.515625,-0.015625 -0.296875,-0.03125 -0.328125,-0.078125 -0.328125,-0.203125 0,-0.015625 0,-0.078125 0.046875,-0.21875 z m 0,0"
                 id="path9" />
            </g>
          </g>
        </defs>
        <g
           fill="#000000"
           fill-opacity="1"
           id="id-ea5166a6-b86c-47f8-b908-7ebc9f3845bb"
           transform="translate(-302.104,-139.939)"
           style="fill:#c8c8ca;fill-opacity:1;stroke-width:3.77128">
          <g
             transform="translate(301.729,146.72)"
             id="g5840"
             style="fill:#c8c8ca;fill-opacity:1;stroke-width:3.77128" />
        </g>
      </g>
    </g>
    <g
       transform="matrix(0.97233028,0,0,0.97233028,236.1869,182.2078)"
       ns134:version="1.10.2"
       ns134:texconverter="xelatex"
       ns134:pdfconverter="inkscape"
       ns134:text="$$M$$"
       ns134:preamble="/home/whooie/Documents/templates/latex/whooie/inkscape_textext.sty"
       ns134:scale="2.77591053977635"
       ns134:alignment="middle center"
       ns134:stroke-to-path="0"
       ns134:inkscapeversion="1.3.2"
       id="g5536"
       ns134:jacobian_sqrt="3.7012"
       style="fill:#c8c8ca;fill-opacity:1;stroke-width:3.80653">
      <defs
         id="id-63ff2e74-621a-4789-ad7b-4d106a45bd08">
        <g
           id="id-637fcac2-a47f-4b1d-bde6-70f018e0fa7d">
          <g
             id="id-958ac501-40a9-4869-8e8b-dd852de0d872">
            <path
               d="M 9.234375,-6.046875 C 9.328125,-6.40625 9.34375,-6.5 10.09375,-6.5 c 0.21875,0 0.3125,0 0.3125,-0.203125 0,-0.109375 -0.09375,-0.109375 -0.265625,-0.109375 h -1.3125 c -0.265625,0 -0.28125,0 -0.390625,0.1875 L 4.796875,-0.9375 4.015625,-6.578125 C 3.984375,-6.8125 3.96875,-6.8125 3.703125,-6.8125 H 2.34375 c -0.1875,0 -0.296875,0 -0.296875,0.1875 0,0.125 0.09375,0.125 0.28125,0.125 0.140625,0 0.3125,0.015625 0.4375,0.015625 0.15625,0.03125 0.21875,0.046875 0.21875,0.171875 0,0.03125 -0.015625,0.0625 -0.046875,0.1875 l -1.265625,5.0625 c -0.09375,0.40625 -0.265625,0.71875 -1.078125,0.75 -0.046875,0 -0.171875,0.015625 -0.171875,0.1875 0,0.09375 0.0625,0.125 0.140625,0.125 0.3125,0 0.65625,-0.03125 1,-0.03125 C 1.890625,-0.03125 2.25,0 2.578125,0 c 0.046875,0 0.1875,0 0.1875,-0.203125 0,-0.109375 -0.109375,-0.109375 -0.1875,-0.109375 -0.5625,0 -0.671875,-0.203125 -0.671875,-0.4375 0,-0.0625 0,-0.125 0.03125,-0.234375 L 3.296875,-6.40625 H 3.3125 l 0.859375,6.171875 C 4.1875,-0.109375 4.203125,0 4.3125,0 4.421875,0 4.484375,-0.109375 4.53125,-0.171875 l 4.03125,-6.3125 h 0.015625 l -1.4375,5.703125 c -0.09375,0.390625 -0.109375,0.46875 -0.90625,0.46875 -0.15625,0 -0.265625,0 -0.265625,0.1875 C 5.96875,0 6.078125,0 6.109375,0 6.390625,0 7.0625,-0.03125 7.34375,-0.03125 7.75,-0.03125 8.1875,0 8.59375,0 8.65625,0 8.78125,0 8.78125,-0.203125 8.78125,-0.3125 8.6875,-0.3125 8.5,-0.3125 c -0.359375,0 -0.640625,0 -0.640625,-0.171875 0,-0.046875 0,-0.0625 0.046875,-0.25 z m 0,0"
               id="id-34c0e736-9551-4b1f-8d8a-c45196b6d348" />
          </g>
        </g>
      </defs>
      <g
         fill="#000000"
         fill-opacity="1"
         id="id-3dc6eecc-b53f-44e3-b37d-74f44f6ec104"
         transform="translate(-300.67,-139.907)"
         style="fill:#c8c8ca;fill-opacity:1;stroke-width:3.80653">
        <g
           transform="translate(300.248,146.72)"
           id="g9551"
           style="fill:#c8c8ca;fill-opacity:1;stroke-width:3.80653">
          <path
             d="m 6.5903515,-2.8106043 c 0.09375,-0.3593749 0.109375,-0.4531249 0.859375,-0.4531249 0.21875,0 0.3125,0 0.3125,-0.203125 0,-0.109375 -0.09375,-0.109375 -0.265625,-0.109375 h -1.3125 c -0.265625,0 -0.28125,0 -0.390625,0.1875 l -3.640625,5.6875 -0.78125,-5.640625 c -0.03125,-0.234375 -0.046875,-0.234375 -0.3125,-0.234375 h -1.35937496 c -0.1875,0 -0.296875,0 -0.296875,0.1875 0,0.125 0.09375,0.125 0.28125,0.125 0.140625,0 0.3125,0.015625 0.4375,0.015625 0.15625,0.03125 0.21875,0.046875 0.21875,0.171875 0,0.03125 -0.015625,0.0625 -0.046875,0.1874999 l -1.265625,5.0625001 c -0.09375,0.40625 -0.26562504,0.71875 -1.07812504,0.75 -0.046875,0 -0.171875,0.015625 -0.171875,0.1875 0,0.09375 0.0625,0.125 0.140625,0.125 0.3125,0 0.65625,-0.03125 1,-0.03125 0.32812504,0 0.68750004,0.03125 1.01562504,0.03125 0.046875,0 0.1875,0 0.1875,-0.203125 0,-0.109375 -0.109375,-0.109375 -0.1875,-0.109375 -0.5625,0 -0.671875,-0.203125 -0.671875,-0.4375 0,-0.0625 0,-0.125 0.03125,-0.234375 l 1.359375,-5.421875 h 0.015625 l 0.85937496,6.171875 c 0.015625,0.125 0.03125,0.234375 0.140625,0.234375 0.109375,0 0.171875,-0.109375 0.21875,-0.171875 l 4.03125,-6.3125 h 0.015625 l -1.4375,5.703125 c -0.09375,0.390625 -0.109375,0.46875 -0.90625,0.46875 -0.15625,0 -0.265625,0 -0.265625,0.1875 0,0.125 0.109375,0.125 0.140625,0.125 0.28125,0 0.953125,-0.03125 1.234375,-0.03125 0.40625,0 0.84375,0.03125 1.25,0.03125 0.0625,0 0.1875,0 0.1875,-0.203125 0,-0.109375 -0.09375,-0.109375 -0.28125,-0.109375 -0.359375,0 -0.640625,0 -0.640625,-0.171875 0,-0.046875 0,-0.0625 0.046875,-0.25 z m 0,0"
             id="id-7ecd01bb-1a00-42b4-920b-8a4344fa09b4"
             style="fill:#c8c8ca;fill-opacity:1;stroke-width:3.80653" />
        </g>
      </g>
    </g>
  </g>
</svg>
