<?xml version="1.0" encoding="UTF-8" standalone="no"?>
<svg
   id="svg8"
   version="1.1"
   viewBox="0 0 410 170"
   height="170"
   width="410"
   inkscape:version="1.3.2 (091e20ef0f, 2023-11-25, custom)"
   sodipodi:docname="square-symmetries.svg"
   xmlns:inkscape="http://www.inkscape.org/namespaces/inkscape"
   xmlns:sodipodi="http://sodipodi.sourceforge.net/DTD/sodipodi-0.dtd"
   xmlns="http://www.w3.org/2000/svg"
   xmlns:svg="http://www.w3.org/2000/svg"
   xmlns:rdf="http://www.w3.org/1999/02/22-rdf-syntax-ns#"
   xmlns:cc="http://creativecommons.org/ns#"
   xmlns:dc="http://purl.org/dc/elements/1.1/">
  <sodipodi:namedview
     pagecolor="#ffffff"
     bordercolor="#000000"
     borderopacity="1"
     objecttolerance="5"
     gridtolerance="10"
     guidetolerance="5"
     inkscape:pageopacity="1"
     inkscape:pageshadow="2"
     inkscape:window-width="2216"
     inkscape:window-height="1436"
     id="namedview10"
     showgrid="true"
     inkscape:zoom="3.0175165"
     inkscape:cx="206.79257"
     inkscape:cy="122.12029"
     inkscape:window-x="15"
     inkscape:window-y="15"
     inkscape:window-maximized="0"
     inkscape:current-layer="svg8"
     showguides="false"
     inkscape:pagecheckerboard="true"
     borderlayer="true"
     scale-x="1"
     fit-margin-top="0"
     fit-margin-left="0"
     fit-margin-right="0"
     fit-margin-bottom="0"
     units="px"
     width="1000px"
     inkscape:showpageshadow="0"
     inkscape:deskcolor="#d1d1d1">
    <inkscape:grid
       type="xygrid"
       id="rectangular"
       units="px"
       spacingx="10"
       spacingy="10"
       dotted="true"
       empspacing="10"
       snapvisiblegridlinesonly="true"
       visible="true"
       enabled="true"
       color="#202020"
       opacity="1"
       empcolor="#000000"
       empopacity="1"
       originx="0"
       originy="0" />
    <inkscape:grid
       type="axonomgrid"
       id="isometric"
       color="#202020"
       opacity="0.10196078"
       empcolor="#000000"
       empopacity="0.25098039"
       spacingy="10"
       units="px"
       empspacing="10"
       gridanglez="30"
       originx="500"
       enabled="false"
       originy="0"
       gridanglex="30"
       visible="true" />
  </sodipodi:namedview>
  <defs
     id="defs2">
    <marker
       inkscape:stockid="TeXArrow_1.0Start"
       style="overflow:visible"
       refY="0"
       refX="0"
       orient="auto"
       id="TeXArrow_1.0Start">
      <path
         id="path826"
         transform="matrix(0.4,0,0,0.4,3.5272,0)"
         style="fill:#000000;fill-rule:evenodd;stroke:#000000;stroke-width:1"
         d="M 0,0 5,-5 -12.5,0 5,5 Z"
         inkscape:connector-curvature="0" />
    </marker>
    <marker
       inkscape:stockid="TeXArrow_1.0End"
       style="overflow:visible"
       refY="0"
       refX="0"
       orient="auto"
       id="TeXArrow_1.0End">
      <path
         id="path829"
         transform="matrix(-0.4,0,0,-0.4,-3.5272,0)"
         style="fill:#000000;fill-rule:evenodd;stroke:#000000;stroke-width:1"
         d="M 0,0 5,-5 -12.5,0 5,5 Z"
         inkscape:connector-curvature="0" />
    </marker>
    <marker
       inkscape:stockid="MyDot_1.0"
       style="overflow:visible"
       refY="0"
       refX="0"
       orient="auto"
       id="MyDot_1.0">
      <path
         id="path874"
         transform="matrix(0.4,0,0,0.4,2.96,0.4)"
         style="fill:#000000;fill-rule:evenodd;stroke:#000000;stroke-width:1"
         d="m -2.5,-1 c 0,2.76 -2.24,5 -5,5 -2.76,0 -5,-2.24 -5,-5 0,-2.76 2.24,-5 5,-5 2.76,0 5,2.24 5,5 z" />
    </marker>
    <marker
       inkscape:stockid="MyEllipsis_1.0Start"
       style="overflow:visible"
       refY="0"
       refX="0"
       orient="auto"
       id="MyEllipsis_1.0Start">
      <path
         id="path877"
         transform="translate(-6)"
         style="fill:#000000;fill-rule:evenodd;stroke:none;stroke-width:1"
         d="m 0.5,0 a 0.5,0.5 0 1 1 -1,0 0.5,0.5 0 1 1 1,0 z m 2,0 a 0.5,0.5 0 1 1 -1,0 0.5,0.5 0 1 1 1,0 z m 2,0 a 0.5,0.5 0 1 1 -1,0 0.5,0.5 0 1 1 1,0 z" />
    </marker>
    <marker
       inkscape:stockid="MyEllipsis_1.0End"
       style="overflow:visible"
       refY="0"
       refX="0"
       orient="auto"
       id="MyEllipsis_1.0End">
      <path
         id="path880"
         transform="translate(2)"
         style="fill:#000000;fill-rule:evenodd;stroke:none;stroke-width:1"
         d="m 0.5,0 a 0.5,0.5 0 1 1 -1,0 0.5,0.5 0 1 1 1,0 z m 2,0 a 0.5,0.5 0 1 1 -1,0 0.5,0.5 0 1 1 1,0 z m 2,0 a 0.5,0.5 0 1 1 -1,0 0.5,0.5 0 1 1 1,0 z" />
    </marker>
    <marker
       inkscape:stockid="MyArrow_1.0Start"
       style="overflow:visible"
       refY="0"
       refX="0"
       orient="auto"
       id="MyArrow_1.0Start">
      <path
         id="path883"
         transform="matrix(0.4,0,0,0.4,3.5272,0)"
         style="fill:#000000;fill-rule:evenodd;stroke:#000000;stroke-width:1"
         d="M 0,0 5,-5 -12.5,0 5,5 Z" />
    </marker>
    <marker
       inkscape:stockid="MyArrow_1.0End"
       style="overflow:visible"
       refY="0"
       refX="0"
       orient="auto"
       id="MyArrow_1.0End">
      <path
         id="path886"
         transform="matrix(-0.4,0,0,-0.4,-3.5272,0)"
         style="fill:#000000;fill-rule:evenodd;stroke:#000000;stroke-width:1"
         d="M 0,0 5,-5 -12.5,0 5,5 Z" />
    </marker>
    <marker
       inkscape:stockid="TeXArrow_1.0"
       style="overflow:visible"
       refY="0"
       refX="0"
       orient="auto"
       id="TeXArrow_1.0">
      <path
         id="path889"
         style="fill:#000000;fill-rule:evenodd;stroke:#000000;stroke-width:1"
         d="m -5,4 c 1,-1.2 3,-3 4.99,-3.99 a 0.01,0.01 0 1 0 0,-0.02 C -2,-1 -4,-2.8 -5,-4 c 1,1.2 3,3 4.99,3.99 a 0.01,0.01 0 1 0 0,0.02 C -2,1 -4,2.8 -5,4" />
    </marker>
    <marker
       inkscape:stockid="TeXArrow_1.0Start"
       style="overflow:visible"
       refY="0"
       refX="0"
       orient="auto"
       id="TeXArrow_1.0Start-2">
      <path
         id="path826-5"
         transform="matrix(0.4,0,0,0.4,3.5272,0)"
         style="fill:#000000;fill-rule:evenodd;stroke:#000000;stroke-width:1"
         d="M 0,0 5,-5 -12.5,0 5,5 Z"
         inkscape:connector-curvature="0" />
    </marker>
    <marker
       inkscape:stockid="TeXArrow_1.0End"
       style="overflow:visible"
       refY="0"
       refX="0"
       orient="auto"
       id="TeXArrow_1.0End-8">
      <path
         id="path829-6"
         transform="matrix(-0.4,0,0,-0.4,-3.5272,0)"
         style="fill:#000000;fill-rule:evenodd;stroke:#000000;stroke-width:1"
         d="M 0,0 5,-5 -12.5,0 5,5 Z"
         inkscape:connector-curvature="0" />
    </marker>
    <marker
       inkscape:stockid="TeXArrow_1.0"
       style="overflow:visible"
       refY="0"
       refX="0"
       orient="auto"
       id="TeXArrow_1.0-2">
      <path
         id="path832"
         style="fill:#000000;fill-rule:evenodd;stroke:#000000;stroke-width:1"
         d="m -4,3 c 1,-1 2,-2 4,-3 -2,-1 -3,-2 -4,-3 1,1 2,2 4,3 -2,1 -3,2 -4,3"
         inkscape:connector-curvature="0" />
    </marker>
    <marker
       inkscape:stockid="TeXArrow_1.0Start"
       style="overflow:visible"
       refY="0"
       refX="0"
       orient="auto"
       id="TeXArrow_1.0Start-0">
      <path
         id="path826-6"
         transform="matrix(0.4,0,0,0.4,3.5272,0)"
         style="fill:#000000;fill-rule:evenodd;stroke:#000000;stroke-width:1"
         d="M 0,0 5,-5 -12.5,0 5,5 Z"
         inkscape:connector-curvature="0" />
    </marker>
    <marker
       inkscape:stockid="TeXArrow_1.0End"
       style="overflow:visible"
       refY="0"
       refX="0"
       orient="auto"
       id="TeXArrow_1.0End-2">
      <path
         id="path829-9"
         transform="matrix(-0.4,0,0,-0.4,-3.5272,0)"
         style="fill:#000000;fill-rule:evenodd;stroke:#000000;stroke-width:1"
         d="M 0,0 5,-5 -12.5,0 5,5 Z"
         inkscape:connector-curvature="0" />
    </marker>
    <marker
       inkscape:stockid="TeXArrow_1.0"
       style="overflow:visible"
       refY="0"
       refX="0"
       orient="auto"
       id="TeXArrow_1.0-9">
      <path
         id="path832-0"
         style="fill:#000000;fill-rule:evenodd;stroke:#000000;stroke-width:1"
         d="m -4,3 c 1,-1 2,-2 4,-3 -2,-1 -3,-2 -4,-3 1,1 2,2 4,3 -2,1 -3,2 -4,3"
         inkscape:connector-curvature="0" />
    </marker>
    <filter
       style="color-interpolation-filters:sRGB"
       inkscape:label="Blur"
       id="filter7"
       x="-0.044751566"
       y="-0.091989331"
       width="1.089503"
       height="1.1839787">
      <feGaussianBlur
         stdDeviation="6.8992"
         result="blur"
         id="feGaussianBlur7" />
    </filter>
    <defs
       id="id-e7580fc1-f65e-4b1b-9801-ed9b48efb427">
      <g
         id="id-7a13298c-280c-40c7-81dd-4f74f1e04d61">
        <g
           id="id-aef101c1-f4d0-4ba2-b264-82b1a2e12ba5">
          <path
             d="m 4.078125,-2.296875 h 2.78125 C 7,-2.296875 7.1875,-2.296875 7.1875,-2.5 7.1875,-2.6875 7,-2.6875 6.859375,-2.6875 h -2.78125 v -2.796875 c 0,-0.140625 0,-0.328125 -0.203125,-0.328125 -0.203125,0 -0.203125,0.1875 -0.203125,0.328125 V -2.6875 h -2.78125 c -0.140625,0 -0.328125,0 -0.328125,0.1875 0,0.203125 0.1875,0.203125 0.328125,0.203125 h 2.78125 V 0.5 c 0,0.140625 0,0.328125 0.203125,0.328125 0.203125,0 0.203125,-0.1875 0.203125,-0.328125 z m 0,0"
             id="id-5c2687da-63bd-44ea-abbc-66f8392ff922" />
        </g>
        <g
           id="id-86d2e492-f0fc-4787-bede-d7d72f4422ea">
          <path
             d="m 3.65625,-3.171875 v 0.328125 c 0,2.328125 -1.03125,2.78125 -1.609375,2.78125 -0.171875,0 -0.71875,-0.015625 -0.984375,-0.359375 0.4375,0 0.515625,-0.28125 0.515625,-0.453125 0,-0.3125 -0.234375,-0.453125 -0.453125,-0.453125 -0.15625,0 -0.453125,0.078125 -0.453125,0.46875 0,0.671875 0.53125,1.078125 1.375,1.078125 1.296875,0 2.515625,-1.359375 2.515625,-3.5 0,-2.6875 -1.15625,-3.359375 -2.046875,-3.359375 -0.546875,0 -1.03125,0.1875 -1.453125,0.625 -0.421875,0.453125 -0.640625,0.875 -0.640625,1.625 0,1.234375 0.875,2.21875 1.984375,2.21875 0.609375,0 1.015625,-0.421875 1.25,-1 z M 2.421875,-2.40625 c -0.15625,0 -0.625,0 -0.921875,-0.625 -0.1875,-0.375 -0.1875,-0.859375 -0.1875,-1.359375 0,-0.53125 0,-1 0.21875,-1.375 0.265625,-0.5 0.640625,-0.625 0.984375,-0.625 0.46875,0 0.796875,0.34375 0.96875,0.78125 0.109375,0.328125 0.15625,0.953125 0.15625,1.40625 0,0.828125 -0.34375,1.796875 -1.21875,1.796875 z m 0,0"
             id="id-c57e61f2-645a-491d-97de-a26db4f7ac4b" />
        </g>
        <g
           id="id-8a762095-a446-4b60-9e0f-d6c5aa3cf464">
          <path
             d="m 4.578125,-3.1875 c 0,-0.796875 -0.046875,-1.59375 -0.390625,-2.328125 -0.453125,-0.96875 -1.28125,-1.125 -1.6875,-1.125 -0.609375,0 -1.328125,0.265625 -1.75,1.1875 -0.3125,0.6875 -0.359375,1.46875 -0.359375,2.265625 0,0.75 0.03125,1.640625 0.453125,2.40625 0.421875,0.796875 1.15625,1 1.640625,1 0.53125,0 1.296875,-0.203125 1.734375,-1.15625 0.3125,-0.6875 0.359375,-1.46875 0.359375,-2.25 z M 2.484375,0 C 2.09375,0 1.5,-0.25 1.328125,-1.203125 1.21875,-1.796875 1.21875,-2.71875 1.21875,-3.3125 c 0,-0.640625 0,-1.296875 0.078125,-1.828125 0.1875,-1.1875 0.9375,-1.28125 1.1875,-1.28125 0.328125,0 0.984375,0.1875 1.171875,1.171875 0.109375,0.5625 0.109375,1.3125 0.109375,1.9375 0,0.75 0,1.421875 -0.109375,2.0625 C 3.5,-0.296875 2.9375,0 2.484375,0 Z m 0,0"
             id="id-bb1f60a7-ad06-4932-a281-31cfed9b186c" />
        </g>
        <g
           id="id-7a31f529-6428-44d7-81cb-4c2a05e49321">
          <path
             d="m 2.9375,-6.375 c 0,-0.25 0,-0.265625 -0.234375,-0.265625 C 2.078125,-6 1.203125,-6 0.890625,-6 v 0.3125 c 0.203125,0 0.78125,0 1.296875,-0.265625 v 5.171875 c 0,0.359375 -0.03125,0.46875 -0.921875,0.46875 h -0.3125 V 0 c 0.34375,-0.03125 1.203125,-0.03125 1.609375,-0.03125 0.390625,0 1.265625,0 1.609375,0.03125 v -0.3125 h -0.3125 c -0.90625,0 -0.921875,-0.109375 -0.921875,-0.46875 z m 0,0"
             id="id-e3567033-da86-4088-b889-2bab1935aea4" />
        </g>
        <g
           id="id-cd0a9486-1d09-43a3-a3b5-34f5379d1c19">
          <path
             d="m 1.625,-4.5625 c -0.453125,-0.296875 -0.5,-0.625 -0.5,-0.796875 0,-0.609375 0.65625,-1.03125 1.359375,-1.03125 0.71875,0 1.359375,0.515625 1.359375,1.234375 0,0.578125 -0.390625,1.046875 -0.984375,1.390625 z m 1.453125,0.953125 C 3.796875,-3.984375 4.28125,-4.5 4.28125,-5.15625 c 0,-0.921875 -0.875,-1.484375 -1.78125,-1.484375 -1,0 -1.8125,0.734375 -1.8125,1.671875 0,0.171875 0.015625,0.625 0.4375,1.09375 0.109375,0.109375 0.484375,0.359375 0.734375,0.53125 C 1.28125,-3.046875 0.421875,-2.5 0.421875,-1.5 c 0,1.046875 1.015625,1.71875 2.0625,1.71875 1.125,0 2.078125,-0.828125 2.078125,-1.890625 0,-0.359375 -0.109375,-0.8125 -0.5,-1.234375 C 3.875,-3.109375 3.71875,-3.203125 3.078125,-3.609375 Z m -1,0.421875 1.234375,0.78125 c 0.28125,0.1875 0.75,0.484375 0.75,1.09375 0,0.734375 -0.75,1.25 -1.5625,1.25 -0.859375,0 -1.578125,-0.609375 -1.578125,-1.4375 0,-0.578125 0.3125,-1.21875 1.15625,-1.6875 z m 0,0"
             id="id-25449710-8f6a-4283-af92-846982373668" />
        </g>
        <g
           id="id-672b7282-4120-4815-be13-e6174aa0ad33">
          <path
             d="m 3.53125,-1.734375 c 0,-0.84375 -0.671875,-1.5 -1.5,-1.5 -0.828125,0 -1.5,0.671875 -1.5,1.484375 0,0.84375 0.6875,1.5 1.5,1.5 0.84375,0 1.5,-0.671875 1.5,-1.484375 z m -1.5,1.140625 C 1.375,-0.59375 0.875,-1.125 0.875,-1.734375 c 0,-0.65625 0.515625,-1.171875 1.15625,-1.171875 0.65625,0 1.15625,0.53125 1.15625,1.15625 0,0.65625 -0.515625,1.15625 -1.15625,1.15625 z m 0,0"
             id="id-56f2c9c2-48e9-4948-83d4-eb5eac1c8e56" />
        </g>
        <g
           id="id-60cc30f0-1fa0-469a-8e52-b42701f6ad5c">
          <path
             d="m 6.5625,-2.296875 c 0.171875,0 0.359375,0 0.359375,-0.203125 0,-0.1875 -0.1875,-0.1875 -0.359375,-0.1875 H 1.171875 c -0.171875,0 -0.34375,0 -0.34375,0.1875 0,0.203125 0.171875,0.203125 0.34375,0.203125 z m 0,0"
             id="id-6591ef8b-6693-4918-bd0d-e960543dad3e" />
        </g>
        <g
           id="id-2c4c0c7a-e52b-4c15-8219-21285b170c94">
          <path
             d="M 4.078125,-3.125 H 6.84375 c 0.171875,0 0.359375,0 0.359375,-0.1875 0,-0.203125 -0.1875,-0.203125 -0.359375,-0.203125 H 4.078125 v -2.75 c 0,-0.171875 0,-0.375 -0.203125,-0.375 -0.203125,0 -0.203125,0.1875 -0.203125,0.34375 v 2.78125 h -2.78125 c -0.15625,0 -0.34375,0 -0.34375,0.203125 0,0.1875 0.1875,0.1875 0.34375,0.1875 h 2.78125 v 2.71875 h -2.78125 c -0.15625,0 -0.34375,0 -0.34375,0.203125 C 0.546875,0 0.734375,0 0.890625,0 H 6.84375 c 0.171875,0 0.359375,0 0.359375,-0.203125 0,-0.203125 -0.1875,-0.203125 -0.359375,-0.203125 H 4.078125 Z m 0,0"
             id="id-6cc4cbbf-abd6-49f3-ae3f-1e226a3bd40c" />
        </g>
      </g>
    </defs>
  </defs>
  <metadata
     id="metadata5">
    <rdf:RDF>
      <cc:Work
         rdf:about="">
        <dc:format>image/svg+xml</dc:format>
        <dc:type
           rdf:resource="http://purl.org/dc/dcmitype/StillImage" />
      </cc:Work>
    </rdf:RDF>
  </metadata>
  <rect
     style="fill:none;fill-opacity:1;stroke:#c8c8ca;stroke-width:1.5;stroke-opacity:1"
     id="rect1"
     width="59.999969"
     height="60"
     x="84.999977"
     y="10" />
  <rect
     style="fill:none;fill-opacity:1;stroke:#c8c8ca;stroke-width:1.5;stroke-opacity:1"
     id="rect1-3"
     width="59.999969"
     height="60"
     x="-234.99991"
     y="10"
     transform="scale(-1,1)" />
  <rect
     style="fill:none;fill-opacity:1;stroke:#c8c8ca;stroke-width:1.5;stroke-opacity:1"
     id="rect1-6"
     width="59.999969"
     height="60"
     x="264.99942"
     y="10" />
  <rect
     style="fill:none;fill-opacity:1;stroke:#c8c8ca;stroke-width:1.5;stroke-opacity:1"
     id="rect1-7"
     width="59.999969"
     height="60"
     x="40.00008"
     y="89.99955" />
  <rect
     style="fill:none;fill-opacity:1;stroke:#c8c8ca;stroke-width:1.5;stroke-opacity:1"
     id="rect1-5"
     width="59.999969"
     height="60"
     x="130.00003"
     y="89.99955" />
  <rect
     style="fill:none;fill-opacity:1;stroke:#c8c8ca;stroke-width:1.5;stroke-opacity:1"
     id="rect1-35"
     width="59.999969"
     height="60"
     x="219.99954"
     y="89.99955" />
  <rect
     style="fill:none;fill-opacity:1;stroke:#c8c8ca;stroke-width:1.5;stroke-opacity:1"
     id="rect1-62"
     width="59.999969"
     height="60"
     x="309.99951"
     y="89.99955" />
  <path
     style="fill:none;fill-opacity:1;stroke:#c8c8ca;stroke-width:1;stroke-dasharray:2, 1;stroke-dashoffset:0;stroke-opacity:1"
     d="m 70.000064,79.99955 v 80"
     id="path2" />
  <path
     style="fill:none;fill-opacity:1;stroke:#c8c8ca;stroke-width:1;stroke-dasharray:2, 1;stroke-dashoffset:0;stroke-opacity:1"
     d="M 120.00004,119.99955 H 200"
     id="path3" />
  <path
     style="fill:none;fill-opacity:1;stroke:#c8c8ca;stroke-width:1;stroke-dasharray:2, 1;stroke-dashoffset:0;stroke-opacity:1"
     d="m 209.99955,159.99955 79.99996,-80"
     id="path4" />
  <path
     style="fill:none;fill-opacity:1;stroke:#c8c8ca;stroke-width:1;stroke-dasharray:2, 1;stroke-dashoffset:0;stroke-opacity:1"
     d="m 299.9995,79.99955 79.99996,80"
     id="path5" />
  <path
     style="fill:none;fill-opacity:1;stroke:#c8c8ca;stroke-width:1;stroke-dasharray:none;stroke-opacity:1"
     id="path6"
     sodipodi:type="arc"
     sodipodi:cx="114.99996"
     sodipodi:cy="39.999996"
     sodipodi:rx="24.999987"
     sodipodi:ry="25"
     sodipodi:start="0"
     sodipodi:end="1.5707963"
     sodipodi:arc-type="arc"
     d="m 139.99995,39.999996 a 24.999987,25 0 0 1 -24.99999,25"
     sodipodi:open="true" />
  <path
     style="fill:none;fill-opacity:1;stroke:#c8c8ca;stroke-width:1;stroke-dasharray:none;stroke-opacity:1"
     id="path6-0"
     sodipodi:type="arc"
     sodipodi:cx="204.99992"
     sodipodi:cy="39.999996"
     sodipodi:rx="24.999987"
     sodipodi:ry="25"
     sodipodi:start="4.712389"
     sodipodi:end="0"
     sodipodi:arc-type="arc"
     d="m 204.99992,14.999996 a 24.999987,25 0 0 1 24.99999,25"
     sodipodi:open="true" />
  <path
     style="fill:none;fill-opacity:1;stroke:#c8c8ca;stroke-width:1;stroke-dasharray:none;stroke-opacity:1"
     id="path6-0-9"
     sodipodi:type="arc"
     sodipodi:cx="294.99942"
     sodipodi:cy="39.999996"
     sodipodi:rx="24.999987"
     sodipodi:ry="25"
     sodipodi:start="0"
     sodipodi:end="3.1415927"
     sodipodi:arc-type="arc"
     d="m 319.99941,39.999996 a 24.999987,25 0 0 1 -12.5,21.650635 24.999987,25 0 0 1 -24.99998,0 24.999987,25 0 0 1 -12.5,-21.650635"
     sodipodi:open="true" />
  <path
     style="fill:none;fill-opacity:1;stroke:#c8c8ca;stroke-width:1;stroke-dasharray:none;stroke-dashoffset:0;stroke-opacity:1"
     d="m 266.72927,42.810547 3.27017,-2.810551 3.27017,2.810551"
     id="path7" />
  <path
     style="fill:none;fill-opacity:1;stroke:#c8c8ca;stroke-width:1;stroke-dasharray:none;stroke-dashoffset:0;stroke-opacity:1"
     d="m 117.81051,68.270168 -2.81055,-3.270172 2.81055,-3.270172"
     id="path7-3" />
  <path
     style="fill:none;fill-opacity:1;stroke:#c8c8ca;stroke-width:1;stroke-dasharray:none;stroke-dashoffset:0;stroke-opacity:1"
     d="m 207.81039,18.280128 -2.81055,-3.270172 2.81055,-3.270172"
     id="path7-6" />
  <g
     id="g7"
     transform="matrix(0.64999507,0,0,0.64999539,155.81603,7.5946387)"
     style="fill:#c8c8ca;fill-opacity:1">
    <g
       fill="#000000"
       fill-opacity="1"
       id="id-f9f9cf84-489e-44e3-be13-a025b79616dd"
       transform="matrix(1.99999,0,0,1.99999,-673.55313,-237.06356)"
       style="fill:#c8c8ca;fill-opacity:1">
      <g
         transform="translate(294.478,146.72)"
         id="g4345"
         style="fill:#c8c8ca;fill-opacity:1">
        <path
           d="m 4.078125,-2.296875 h 2.78125 C 7,-2.296875 7.1875,-2.296875 7.1875,-2.5 7.1875,-2.6875 7,-2.6875 6.859375,-2.6875 h -2.78125 v -2.796875 c 0,-0.140625 0,-0.328125 -0.203125,-0.328125 -0.203125,0 -0.203125,0.1875 -0.203125,0.328125 V -2.6875 h -2.78125 c -0.140625,0 -0.328125,0 -0.328125,0.1875 0,0.203125 0.1875,0.203125 0.328125,0.203125 h 2.78125 V 0.5 c 0,0.140625 0,0.328125 0.203125,0.328125 0.203125,0 0.203125,-0.1875 0.203125,-0.328125 z m 0,0"
           id="id-48b5a87f-0417-4350-9b9a-c3da819791ca"
           style="fill:#c8c8ca;fill-opacity:1" />
      </g>
      <g
         transform="translate(302.219,146.72)"
         id="g6050"
         style="fill:#c8c8ca;fill-opacity:1">
        <path
           d="m 3.65625,-3.171875 v 0.328125 c 0,2.328125 -1.03125,2.78125 -1.609375,2.78125 -0.171875,0 -0.71875,-0.015625 -0.984375,-0.359375 0.4375,0 0.515625,-0.28125 0.515625,-0.453125 0,-0.3125 -0.234375,-0.453125 -0.453125,-0.453125 -0.15625,0 -0.453125,0.078125 -0.453125,0.46875 0,0.671875 0.53125,1.078125 1.375,1.078125 1.296875,0 2.515625,-1.359375 2.515625,-3.5 0,-2.6875 -1.15625,-3.359375 -2.046875,-3.359375 -0.546875,0 -1.03125,0.1875 -1.453125,0.625 -0.421875,0.453125 -0.640625,0.875 -0.640625,1.625 0,1.234375 0.875,2.21875 1.984375,2.21875 0.609375,0 1.015625,-0.421875 1.25,-1 z M 2.421875,-2.40625 c -0.15625,0 -0.625,0 -0.921875,-0.625 -0.1875,-0.375 -0.1875,-0.859375 -0.1875,-1.359375 0,-0.53125 0,-1 0.21875,-1.375 0.265625,-0.5 0.640625,-0.625 0.984375,-0.625 0.46875,0 0.796875,0.34375 0.96875,0.78125 0.109375,0.328125 0.15625,0.953125 0.15625,1.40625 0,0.828125 -0.34375,1.796875 -1.21875,1.796875 z m 0,0"
           id="id-ee6bdb62-40d2-49fd-8f2d-e371722af280"
           style="fill:#c8c8ca;fill-opacity:1" />
      </g>
      <g
         transform="translate(307.2,146.72)"
         id="g9849"
         style="fill:#c8c8ca;fill-opacity:1">
        <path
           d="m 4.578125,-3.1875 c 0,-0.796875 -0.046875,-1.59375 -0.390625,-2.328125 -0.453125,-0.96875 -1.28125,-1.125 -1.6875,-1.125 -0.609375,0 -1.328125,0.265625 -1.75,1.1875 -0.3125,0.6875 -0.359375,1.46875 -0.359375,2.265625 0,0.75 0.03125,1.640625 0.453125,2.40625 0.421875,0.796875 1.15625,1 1.640625,1 0.53125,0 1.296875,-0.203125 1.734375,-1.15625 0.3125,-0.6875 0.359375,-1.46875 0.359375,-2.25 z M 2.484375,0 C 2.09375,0 1.5,-0.25 1.328125,-1.203125 1.21875,-1.796875 1.21875,-2.71875 1.21875,-3.3125 c 0,-0.640625 0,-1.296875 0.078125,-1.828125 0.1875,-1.1875 0.9375,-1.28125 1.1875,-1.28125 0.328125,0 0.984375,0.1875 1.171875,1.171875 0.109375,0.5625 0.109375,1.3125 0.109375,1.9375 0,0.75 0,1.421875 -0.109375,2.0625 C 3.5,-0.296875 2.9375,0 2.484375,0 Z m 0,0"
           id="id-5fc7c14f-49ec-46a9-979e-dc7e03ff48e2"
           style="fill:#c8c8ca;fill-opacity:1" />
      </g>
    </g>
    <g
       fill="#000000"
       fill-opacity="1"
       id="id-d2a10d82-186d-4d76-a8c9-26835c02a6e3"
       transform="matrix(1.99999,0,0,1.99999,-673.55313,-237.06356)"
       style="fill:#c8c8ca;fill-opacity:1">
      <g
         transform="translate(312.19,142.606)"
         id="g1717"
         style="fill:#c8c8ca;fill-opacity:1">
        <path
           d="m 3.53125,-1.734375 c 0,-0.84375 -0.671875,-1.5 -1.5,-1.5 -0.828125,0 -1.5,0.671875 -1.5,1.484375 0,0.84375 0.6875,1.5 1.5,1.5 0.84375,0 1.5,-0.671875 1.5,-1.484375 z m -1.5,1.140625 C 1.375,-0.59375 0.875,-1.125 0.875,-1.734375 c 0,-0.65625 0.515625,-1.171875 1.15625,-1.171875 0.65625,0 1.15625,0.53125 1.15625,1.15625 0,0.65625 -0.515625,1.15625 -1.15625,1.15625 z m 0,0"
           id="id-a0850fc0-58e4-4769-aec5-115d74b1c572"
           style="fill:#c8c8ca;fill-opacity:1" />
      </g>
    </g>
  </g>
  <g
     id="g8"
     transform="matrix(0.64999895,0,0,0.64999927,245.64358,-15.32222)"
     style="fill:#c8c8ca;fill-opacity:1">
    <g
       fill="#000000"
       fill-opacity="1"
       id="id-14e6e52a-a685-42c3-a665-b5f92e7bd169"
       transform="matrix(1.99999,0,0,1.99999,-673.55313,-237.06356)"
       style="fill:#c8c8ca;fill-opacity:1">
      <g
         transform="translate(294.478,164.653)"
         id="g5475"
         style="fill:#c8c8ca;fill-opacity:1">
        <path
           d="m 6.5625,-2.296875 c 0.171875,0 0.359375,0 0.359375,-0.203125 0,-0.1875 -0.1875,-0.1875 -0.359375,-0.1875 H 1.171875 c -0.171875,0 -0.34375,0 -0.34375,0.1875 0,0.203125 0.171875,0.203125 0.34375,0.203125 z m 0,0"
           id="id-a464cba8-4133-43a8-bf9c-0cda5ea01e27"
           style="fill:#c8c8ca;fill-opacity:1" />
      </g>
    </g>
    <g
       fill="#000000"
       fill-opacity="1"
       id="id-10745fb3-770e-480b-97f1-11affa122027"
       transform="matrix(1.99999,0,0,1.99999,-673.55313,-237.06356)"
       style="fill:#c8c8ca;fill-opacity:1">
      <g
         transform="translate(302.227,164.653)"
         id="g7146"
         style="fill:#c8c8ca;fill-opacity:1">
        <path
           d="m 3.65625,-3.171875 v 0.328125 c 0,2.328125 -1.03125,2.78125 -1.609375,2.78125 -0.171875,0 -0.71875,-0.015625 -0.984375,-0.359375 0.4375,0 0.515625,-0.28125 0.515625,-0.453125 0,-0.3125 -0.234375,-0.453125 -0.453125,-0.453125 -0.15625,0 -0.453125,0.078125 -0.453125,0.46875 0,0.671875 0.53125,1.078125 1.375,1.078125 1.296875,0 2.515625,-1.359375 2.515625,-3.5 0,-2.6875 -1.15625,-3.359375 -2.046875,-3.359375 -0.546875,0 -1.03125,0.1875 -1.453125,0.625 -0.421875,0.453125 -0.640625,0.875 -0.640625,1.625 0,1.234375 0.875,2.21875 1.984375,2.21875 0.609375,0 1.015625,-0.421875 1.25,-1 z M 2.421875,-2.40625 c -0.15625,0 -0.625,0 -0.921875,-0.625 -0.1875,-0.375 -0.1875,-0.859375 -0.1875,-1.359375 0,-0.53125 0,-1 0.21875,-1.375 0.265625,-0.5 0.640625,-0.625 0.984375,-0.625 0.46875,0 0.796875,0.34375 0.96875,0.78125 0.109375,0.328125 0.15625,0.953125 0.15625,1.40625 0,0.828125 -0.34375,1.796875 -1.21875,1.796875 z m 0,0"
           id="id-41b01643-d62c-4482-9cef-0367374f627f"
           style="fill:#c8c8ca;fill-opacity:1" />
      </g>
      <g
         transform="translate(307.208,164.653)"
         id="g4014"
         style="fill:#c8c8ca;fill-opacity:1">
        <path
           d="m 4.578125,-3.1875 c 0,-0.796875 -0.046875,-1.59375 -0.390625,-2.328125 -0.453125,-0.96875 -1.28125,-1.125 -1.6875,-1.125 -0.609375,0 -1.328125,0.265625 -1.75,1.1875 -0.3125,0.6875 -0.359375,1.46875 -0.359375,2.265625 0,0.75 0.03125,1.640625 0.453125,2.40625 0.421875,0.796875 1.15625,1 1.640625,1 0.53125,0 1.296875,-0.203125 1.734375,-1.15625 0.3125,-0.6875 0.359375,-1.46875 0.359375,-2.25 z M 2.484375,0 C 2.09375,0 1.5,-0.25 1.328125,-1.203125 1.21875,-1.796875 1.21875,-2.71875 1.21875,-3.3125 c 0,-0.640625 0,-1.296875 0.078125,-1.828125 0.1875,-1.1875 0.9375,-1.28125 1.1875,-1.28125 0.328125,0 0.984375,0.1875 1.171875,1.171875 0.109375,0.5625 0.109375,1.3125 0.109375,1.9375 0,0.75 0,1.421875 -0.109375,2.0625 C 3.5,-0.296875 2.9375,0 2.484375,0 Z m 0,0"
           id="id-bf62652a-56d7-421f-97d7-1f02ddecab56"
           style="fill:#c8c8ca;fill-opacity:1" />
      </g>
    </g>
    <g
       fill="#000000"
       fill-opacity="1"
       id="id-8f6e1eac-338c-4a8e-a831-5e0952f2b927"
       transform="matrix(1.99999,0,0,1.99999,-673.55313,-237.06356)"
       style="fill:#c8c8ca;fill-opacity:1">
      <g
         transform="translate(312.19,160.539)"
         id="g3764"
         style="fill:#c8c8ca;fill-opacity:1">
        <path
           d="m 3.53125,-1.734375 c 0,-0.84375 -0.671875,-1.5 -1.5,-1.5 -0.828125,0 -1.5,0.671875 -1.5,1.484375 0,0.84375 0.6875,1.5 1.5,1.5 0.84375,0 1.5,-0.671875 1.5,-1.484375 z m -1.5,1.140625 C 1.375,-0.59375 0.875,-1.125 0.875,-1.734375 c 0,-0.65625 0.515625,-1.171875 1.15625,-1.171875 0.65625,0 1.15625,0.53125 1.15625,1.15625 0,0.65625 -0.515625,1.15625 -1.15625,1.15625 z m 0,0"
           id="id-86a43f95-8d61-4fda-9ba5-fa6eb4c1c776"
           style="fill:#c8c8ca;fill-opacity:1" />
      </g>
    </g>
  </g>
  <g
     id="g9"
     transform="matrix(0.64999344,0,0,0.64999376,335.82555,-38.633661)"
     style="fill:#c8c8ca;fill-opacity:1">
    <g
       fill="#000000"
       fill-opacity="1"
       id="id-4466f21e-f193-4b6d-afea-63cbd2fecec7"
       transform="matrix(1.99999,0,0,1.99999,-673.55313,-237.06356)"
       style="fill:#c8c8ca;fill-opacity:1">
      <g
         transform="translate(291.988,182.585)"
         id="g3125"
         style="fill:#c8c8ca;fill-opacity:1">
        <path
           d="M 4.078125,-3.125 H 6.84375 c 0.171875,0 0.359375,0 0.359375,-0.1875 0,-0.203125 -0.1875,-0.203125 -0.359375,-0.203125 H 4.078125 v -2.75 c 0,-0.171875 0,-0.375 -0.203125,-0.375 -0.203125,0 -0.203125,0.1875 -0.203125,0.34375 v 2.78125 h -2.78125 c -0.15625,0 -0.34375,0 -0.34375,0.203125 0,0.1875 0.1875,0.1875 0.34375,0.1875 h 2.78125 v 2.71875 h -2.78125 c -0.15625,0 -0.34375,0 -0.34375,0.203125 C 0.546875,0 0.734375,0 0.890625,0 H 6.84375 c 0.171875,0 0.359375,0 0.359375,-0.203125 0,-0.203125 -0.1875,-0.203125 -0.359375,-0.203125 H 4.078125 Z m 0,0"
           id="id-fd2f148d-3920-43fc-85d2-f3420526e884"
           style="fill:#c8c8ca;fill-opacity:1" />
      </g>
    </g>
    <g
       fill="#000000"
       fill-opacity="1"
       id="id-1c633090-7b50-4114-8ac0-b9ef1ebae178"
       transform="matrix(1.99999,0,0,1.99999,-673.55313,-237.06356)"
       style="fill:#c8c8ca;fill-opacity:1">
      <g
         transform="translate(299.736,182.585)"
         id="g9824"
         style="fill:#c8c8ca;fill-opacity:1">
        <path
           d="m 2.9375,-6.375 c 0,-0.25 0,-0.265625 -0.234375,-0.265625 C 2.078125,-6 1.203125,-6 0.890625,-6 v 0.3125 c 0.203125,0 0.78125,0 1.296875,-0.265625 v 5.171875 c 0,0.359375 -0.03125,0.46875 -0.921875,0.46875 h -0.3125 V 0 c 0.34375,-0.03125 1.203125,-0.03125 1.609375,-0.03125 0.390625,0 1.265625,0 1.609375,0.03125 v -0.3125 h -0.3125 c -0.90625,0 -0.921875,-0.109375 -0.921875,-0.46875 z m 0,0"
           id="id-10a44f44-a9ea-4ba5-bc92-d28da10bf097"
           style="fill:#c8c8ca;fill-opacity:1" />
      </g>
      <g
         transform="translate(304.717,182.585)"
         id="g6039"
         style="fill:#c8c8ca;fill-opacity:1">
        <path
           d="m 1.625,-4.5625 c -0.453125,-0.296875 -0.5,-0.625 -0.5,-0.796875 0,-0.609375 0.65625,-1.03125 1.359375,-1.03125 0.71875,0 1.359375,0.515625 1.359375,1.234375 0,0.578125 -0.390625,1.046875 -0.984375,1.390625 z m 1.453125,0.953125 C 3.796875,-3.984375 4.28125,-4.5 4.28125,-5.15625 c 0,-0.921875 -0.875,-1.484375 -1.78125,-1.484375 -1,0 -1.8125,0.734375 -1.8125,1.671875 0,0.171875 0.015625,0.625 0.4375,1.09375 0.109375,0.109375 0.484375,0.359375 0.734375,0.53125 C 1.28125,-3.046875 0.421875,-2.5 0.421875,-1.5 c 0,1.046875 1.015625,1.71875 2.0625,1.71875 1.125,0 2.078125,-0.828125 2.078125,-1.890625 0,-0.359375 -0.109375,-0.8125 -0.5,-1.234375 C 3.875,-3.109375 3.71875,-3.203125 3.078125,-3.609375 Z m -1,0.421875 1.234375,0.78125 c 0.28125,0.1875 0.75,0.484375 0.75,1.09375 0,0.734375 -0.75,1.25 -1.5625,1.25 -0.859375,0 -1.578125,-0.609375 -1.578125,-1.4375 0,-0.578125 0.3125,-1.21875 1.15625,-1.6875 z m 0,0"
           id="id-4bea3648-2b49-4502-8111-36ed0ddfba0b"
           style="fill:#c8c8ca;fill-opacity:1" />
      </g>
      <g
         transform="translate(309.699,182.585)"
         id="g9633"
         style="fill:#c8c8ca;fill-opacity:1">
        <path
           d="m 4.578125,-3.1875 c 0,-0.796875 -0.046875,-1.59375 -0.390625,-2.328125 -0.453125,-0.96875 -1.28125,-1.125 -1.6875,-1.125 -0.609375,0 -1.328125,0.265625 -1.75,1.1875 -0.3125,0.6875 -0.359375,1.46875 -0.359375,2.265625 0,0.75 0.03125,1.640625 0.453125,2.40625 0.421875,0.796875 1.15625,1 1.640625,1 0.53125,0 1.296875,-0.203125 1.734375,-1.15625 0.3125,-0.6875 0.359375,-1.46875 0.359375,-2.25 z M 2.484375,0 C 2.09375,0 1.5,-0.25 1.328125,-1.203125 1.21875,-1.796875 1.21875,-2.71875 1.21875,-3.3125 c 0,-0.640625 0,-1.296875 0.078125,-1.828125 0.1875,-1.1875 0.9375,-1.28125 1.1875,-1.28125 0.328125,0 0.984375,0.1875 1.171875,1.171875 0.109375,0.5625 0.109375,1.3125 0.109375,1.9375 0,0.75 0,1.421875 -0.109375,2.0625 C 3.5,-0.296875 2.9375,0 2.484375,0 Z m 0,0"
           id="id-9a7d50b8-3149-42d7-8b56-33e1a3894d4f"
           style="fill:#c8c8ca;fill-opacity:1" />
      </g>
    </g>
    <g
       fill="#000000"
       fill-opacity="1"
       id="id-447f5766-63ac-459a-b9e0-d21eea4ac7f0"
       transform="matrix(1.99999,0,0,1.99999,-673.55313,-237.06356)"
       style="fill:#c8c8ca;fill-opacity:1">
      <g
         transform="translate(314.68,178.472)"
         id="g7120"
         style="fill:#c8c8ca;fill-opacity:1">
        <path
           d="m 3.53125,-1.734375 c 0,-0.84375 -0.671875,-1.5 -1.5,-1.5 -0.828125,0 -1.5,0.671875 -1.5,1.484375 0,0.84375 0.6875,1.5 1.5,1.5 0.84375,0 1.5,-0.671875 1.5,-1.484375 z m -1.5,1.140625 C 1.375,-0.59375 0.875,-1.125 0.875,-1.734375 c 0,-0.65625 0.515625,-1.171875 1.15625,-1.171875 0.65625,0 1.15625,0.53125 1.15625,1.15625 0,0.65625 -0.515625,1.15625 -1.15625,1.15625 z m 0,0"
           id="id-81be9d53-f4e2-4c8a-9e65-bdbca7b9f0aa"
           style="fill:#c8c8ca;fill-opacity:1" />
      </g>
    </g>
  </g>
  <g
     id="g1"
     style="stroke:#c8c8ca;stroke-opacity:1"
     transform="translate(1.9732406e-5,-30.00008)">
    <path
       style="fill:none;fill-opacity:1;stroke:#c8c8ca;stroke-width:1;stroke-dasharray:none;stroke-dashoffset:0;stroke-opacity:1"
       d="M 64.531566,151.0667 60.353607,150 l 0.426575,-4.29083"
       id="path7-3-6" />
    <path
       style="fill:none;fill-opacity:1;stroke:#c8c8ca;stroke-width:1;stroke-dasharray:none;stroke-dashoffset:0;stroke-opacity:1"
       d="M 75.822041,151.0667 80,150 79.573425,145.70917"
       id="path7-3-4" />
    <path
       style="fill:none;fill-opacity:1;stroke:#c8c8ca;stroke-width:0.999999;stroke-dasharray:none;stroke-opacity:1"
       d="M 60.353607,150 C 65.265205,145.56905 75.088402,145.56905 80,150"
       id="path1"
       sodipodi:nodetypes="cc" />
  </g>
  <g
     id="g2"
     transform="rotate(90,130.17682,179.82314)"
     style="stroke:#c8c8ca;stroke-opacity:1">
    <path
       style="fill:none;fill-opacity:1;stroke:#c8c8ca;stroke-width:1;stroke-dasharray:none;stroke-dashoffset:0;stroke-opacity:1"
       d="M 64.531566,151.0667 60.353607,150 l 0.426575,-4.29083"
       id="path7-3-6-0" />
    <path
       style="fill:none;fill-opacity:1;stroke:#c8c8ca;stroke-width:1;stroke-dasharray:none;stroke-dashoffset:0;stroke-opacity:1"
       d="M 75.822041,151.0667 80,150 79.573425,145.70917"
       id="path7-3-4-3" />
    <path
       style="fill:none;fill-opacity:1;stroke:#c8c8ca;stroke-width:0.999999;stroke-dasharray:none;stroke-opacity:1"
       d="M 60.353607,150 C 65.265205,145.56905 75.088402,145.56905 80,150"
       id="path1-0"
       sodipodi:nodetypes="cc" />
  </g>
  <g
     id="g2-2"
     transform="rotate(45.000014,194.11094,351.1575)"
     style="stroke:#c8c8ca;stroke-opacity:1">
    <path
       style="fill:none;fill-opacity:1;stroke:#c8c8ca;stroke-width:1;stroke-dasharray:none;stroke-dashoffset:0;stroke-opacity:1"
       d="M 64.531566,151.0667 60.353607,150 l 0.426575,-4.29083"
       id="path7-3-6-5" />
    <path
       style="fill:none;fill-opacity:1;stroke:#c8c8ca;stroke-width:1;stroke-dasharray:none;stroke-dashoffset:0;stroke-opacity:1"
       d="M 75.822041,151.0667 80,150 79.573425,145.70917"
       id="path7-3-4-4" />
    <path
       style="fill:none;fill-opacity:1;stroke:#c8c8ca;stroke-width:0.999999;stroke-dasharray:none;stroke-opacity:1"
       d="M 60.353607,150 C 65.265205,145.56905 75.088402,145.56905 80,150"
       id="path1-05"
       sodipodi:nodetypes="cc" />
  </g>
  <g
     id="g2-2-4"
     transform="rotate(134.99999,210.92556,189.97436)"
     style="stroke:#c8c8ca;stroke-opacity:1">
    <path
       style="fill:none;fill-opacity:1;stroke:#c8c8ca;stroke-width:1;stroke-dasharray:none;stroke-dashoffset:0;stroke-opacity:1"
       d="M 64.531566,151.0667 60.353607,150 l 0.426575,-4.29083"
       id="path7-3-6-5-6" />
    <path
       style="fill:none;fill-opacity:1;stroke:#c8c8ca;stroke-width:1;stroke-dasharray:none;stroke-dashoffset:0;stroke-opacity:1"
       d="M 75.822041,151.0667 80,150 79.573425,145.70917"
       id="path7-3-4-4-9" />
    <path
       style="fill:none;fill-opacity:1;stroke:#c8c8ca;stroke-width:0.999999;stroke-dasharray:none;stroke-opacity:1"
       d="M 60.353607,150 C 65.265205,145.56905 75.088402,145.56905 80,150"
       id="path1-05-2"
       sodipodi:nodetypes="cc" />
  </g>
</svg>
