graph "mps-canonical" {
    graph [
        rankdir=tb,
        pad=0.5,
        bgcolor="#fafafa00",
        dpi=200.0,
        penwidth=1.0,
    ];
    node [
        fontname="sans-serif",
        fontsize=20,
        fontcolor="#444",
        margin=0.0,
        shape=square,
        style=filled,
        fillcolor="#eee",
        color="#aaa",
        height=0.85,
        penwidth=2.0,
    ];
    edge [
        fontname="sans-serif",
        fontsize=20,
        fontcolor="#aaa",
        color="#aaa",
        penwidth=2.0,
        minlen=1.5,
        splines=none,
    ];
    {
        graph [rank=source];
        edge [splines=none, minlen=2.75];
        G1 [label=<<i>Γ</i><sub>1</sub>>];
        L1 [label=<<i>Λ</i><sub>1</sub>>, shape=circle];
        G2 [label=<<i>Γ</i><sub>2</sub>>];
        L2 [label=<<i>Λ</i><sub>2</sub>>, shape=circle];
        d [label="...", shape=plaintext, style=""];
        LNm1[label=<<i>Λ</i><sub><i>N</i>–1</sub>>, shape=circle];
        GN [label=<<i>Γ</i><sub><i>N</i></sub>>];
        G1 -- L1 [label=<<i>u</i><sub>1</sub>>];
        L1 -- G2 [label=<<i>u</i><sub>1</sub>>];
        G2 -- L2 [label=<<i>u</i><sub>2</sub>>];
        L2 -- d [label=<<i>u</i><sub>2</sub>>];
        d -- LNm1 [label=<<i>u</i><sub><i>N</i>–1</sub>>];
        LNm1 -- GN [label=<<i>u</i><sub><i>N</i>–1</sub>>];
    }    
    s1 [label="", shape=plaintext, height=0.0, style=""];
    s2 [label="", shape=plaintext, height=0.0, style=""];
    sN [label="", shape=plaintext, height=0.0, style=""];
    G1 -- s1 [label=< <i>σ</i><sub>1</sub>>]; 
    G2 -- s2 [label=< <i>σ</i><sub>2</sub>>]; 
    GN -- sN [label=< <i>σ</i><sub><i>N</i></sub>>]; 
}
